<svg width="538" height="71" viewBox="0 0 538 71" fill="none" xmlns="http://www.w3.org/2000/svg">
<path d="M2.61281 42.64H0.612812V43.6813L1.46589 44.2785L2.61281 42.64ZM2.61281 32.56L1.46589 30.9215L0.612812 31.5187V32.56H2.61281ZM27.4128 15.2H29.4128V11.3587L26.2659 13.5615L27.4128 15.2ZM27.4128 26.48L28.5816 28.1029L29.4128 27.5043V26.48H27.4128ZM11.9728 37.6L10.804 35.9771L8.55059 37.6L10.804 39.2229L11.9728 37.6ZM27.4128 48.72H29.4128V47.6957L28.5816 47.0971L27.4128 48.72ZM27.4128 60L26.2659 61.6385L29.4128 63.8413V60H27.4128ZM4.61281 42.64V32.56H0.612812V42.64H4.61281ZM3.75974 34.1985L28.5597 16.8385L26.2659 13.5615L1.46589 30.9215L3.75974 34.1985ZM25.4128 15.2V26.48H29.4128V15.2H25.4128ZM26.244 24.8571L10.804 35.9771L13.1416 39.2229L28.5816 28.1029L26.244 24.8571ZM10.804 39.2229L26.244 50.3429L28.5816 47.0971L13.1416 35.9771L10.804 39.2229ZM25.4128 48.72V60H29.4128V48.72H25.4128ZM28.5597 58.3615L3.75974 41.0015L1.46589 44.2785L26.2659 61.6385L28.5597 58.3615ZM57.2766 3.2V1.2H55.2766V3.2H57.2766ZM86.3966 3.2H88.3966V1.2H86.3966V3.2ZM86.3966 12.96V14.96H88.3966V12.96H86.3966ZM71.5966 12.96V10.96H69.5966V12.96H71.5966ZM71.5966 29.04H69.5966V31.04H71.5966V29.04ZM82.8766 29.04H84.8766V27.04H82.8766V29.04ZM82.8766 38.96V40.96H84.8766V38.96H82.8766ZM71.5966 38.96V36.96H69.5966V38.96H71.5966ZM71.5966 58.32H69.5966V60.32H71.5966V58.32ZM86.5566 58.32H88.5566V56.32H86.5566V58.32ZM86.5566 68V70H88.5566V68H86.5566ZM57.2766 68H55.2766V70H57.2766V68ZM57.2766 5.2H86.3966V1.2H57.2766V5.2ZM84.3966 3.2V12.96H88.3966V3.2H84.3966ZM86.3966 10.96H71.5966V14.96H86.3966V10.96ZM69.5966 12.96V29.04H73.5966V12.96H69.5966ZM71.5966 31.04H82.8766V27.04H71.5966V31.04ZM80.8766 29.04V38.96H84.8766V29.04H80.8766ZM82.8766 36.96H71.5966V40.96H82.8766V36.96ZM69.5966 38.96V58.32H73.5966V38.96H69.5966ZM71.5966 60.32H86.5566V56.32H71.5966V60.32ZM84.5566 58.32V68H88.5566V58.32H84.5566ZM86.5566 66H57.2766V70H86.5566V66ZM59.2766 68V3.2H55.2766V68H59.2766ZM101.378 33.12L103.26 33.7976L103.517 33.0817L103.234 32.3755L101.378 33.12ZM89.3778 3.2V1.2H86.4208L87.5215 3.94449L89.3778 3.2ZM102.898 3.2L104.751 2.44701L104.244 1.2H102.898V3.2ZM110.018 20.72L108.165 21.473L110.216 26.5203L111.918 21.3446L110.018 20.72ZM115.778 3.2V1.2H114.33L113.878 2.57535L115.778 3.2ZM127.698 3.2L129.593 3.8392L130.483 1.2H127.698V3.2ZM116.338 36.88L114.443 36.2408L114.205 36.9445L114.485 37.6326L116.338 36.88ZM128.978 68V70H131.949L130.831 67.2474L128.978 68ZM115.538 68L113.687 68.7573L114.195 70H115.538V68ZM107.618 48.64L109.469 47.8827L107.497 43.0633L105.736 47.9634L107.618 48.64ZM100.658 68V70H102.064L102.54 68.6766L100.658 68ZM88.8178 68L86.9361 67.3224L85.9719 70H88.8178V68ZM103.234 32.3755L91.2341 2.4555L87.5215 3.94449L99.5215 33.8645L103.234 32.3755ZM89.3778 5.2H102.898V1.2H89.3778V5.2ZM101.045 3.95298L108.165 21.473L111.871 19.967L104.751 2.44701L101.045 3.95298ZM111.918 21.3446L117.678 3.82464L113.878 2.57535L108.118 20.0954L111.918 21.3446ZM115.778 5.2H127.698V1.2H115.778V5.2ZM125.803 2.56079L114.443 36.2408L118.233 37.5192L129.593 3.8392L125.803 2.56079ZM114.485 37.6326L127.125 68.7526L130.831 67.2474L118.191 36.1274L114.485 37.6326ZM128.978 66H115.538V70H128.978V66ZM117.389 67.2427L109.469 47.8827L105.767 49.3973L113.687 68.7573L117.389 67.2427ZM105.736 47.9634L98.7757 67.3234L102.54 68.6766L109.5 49.3166L105.736 47.9634ZM100.658 66H88.8178V70H100.658V66ZM90.6995 68.6776L103.26 33.7976L99.4961 32.4424L86.9361 67.3224L90.6995 68.6776ZM134.23 3.2V1.2H132.23V3.2H134.23ZM168.79 8.08L167.28 9.39174L167.285 9.39793L167.291 9.40407L168.79 8.08ZM168.07 36.48L169.338 38.0268L169.34 38.0246L168.07 36.48ZM148.55 40.48V38.48H146.55V40.48H148.55ZM148.55 68V70H150.55V68H148.55ZM134.23 68H132.23V70H134.23V68ZM158.31 28.48L156.625 27.4019L156.61 27.4262L156.595 27.451L158.31 28.48ZM158.39 15.36L160.122 14.3606V14.3605L158.39 15.36ZM148.55 13.28V11.28H146.55V13.28H148.55ZM148.55 30.48H146.55V32.48H148.55V30.48ZM134.23 5.2H155.99V1.2H134.23V5.2ZM155.99 5.2C161.316 5.2 164.947 6.70619 167.28 9.39174L170.299 6.76826C166.979 2.94714 162.077 1.2 155.99 1.2V5.2ZM167.291 9.40407C169.681 12.1098 171.03 16.2029 171.03 22H175.03C175.03 15.6371 173.552 10.4502 170.289 6.75593L167.291 9.40407ZM171.03 22C171.03 28.7012 169.421 32.7787 166.799 34.9354L169.34 38.0246C173.332 34.7413 175.03 29.1655 175.03 22H171.03ZM166.802 34.9332C164.027 37.2076 159.953 38.48 154.31 38.48V42.48C160.507 42.48 165.606 41.0857 169.338 38.0268L166.802 34.9332ZM154.31 38.48H148.55V42.48H154.31V38.48ZM146.55 40.48V68H150.55V40.48H146.55ZM148.55 66H134.23V70H148.55V66ZM136.23 68V3.2H132.23V68H136.23ZM153.35 32.48C156.109 32.48 158.68 31.75 160.025 29.509L156.595 27.451C156.339 27.8766 155.604 28.48 153.35 28.48V32.48ZM159.994 29.5581C161.174 27.7147 161.59 24.9771 161.59 21.76H157.59C157.59 24.8362 157.152 26.5786 156.625 27.4019L159.994 29.5581ZM161.59 21.76C161.59 18.7695 161.188 16.2074 160.122 14.3606L156.657 16.3594C157.192 17.2859 157.59 18.9905 157.59 21.76H161.59ZM160.122 14.3605C158.779 12.032 156.124 11.28 153.27 11.28V15.28C155.642 15.28 156.401 15.9147 156.657 16.3594L160.122 14.3605ZM153.27 11.28H148.55V15.28H153.27V11.28ZM146.55 13.28V30.48H150.55V13.28H146.55ZM148.55 32.48H153.35V28.48H148.55V32.48ZM179.933 3.2V1.2H177.933V3.2H179.933ZM209.053 3.2H211.053V1.2H209.053V3.2ZM209.053 12.96V14.96H211.053V12.96H209.053ZM194.253 12.96V10.96H192.253V12.96H194.253ZM194.253 29.04H192.253V31.04H194.253V29.04ZM205.533 29.04H207.533V27.04H205.533V29.04ZM205.533 38.96V40.96H207.533V38.96H205.533ZM194.253 38.96V36.96H192.253V38.96H194.253ZM194.253 58.32H192.253V60.32H194.253V58.32ZM209.213 58.32H211.213V56.32H209.213V58.32ZM209.213 68V70H211.213V68H209.213ZM179.933 68H177.933V70H179.933V68ZM179.933 5.2H209.053V1.2H179.933V5.2ZM207.053 3.2V12.96H211.053V3.2H207.053ZM209.053 10.96H194.253V14.96H209.053V10.96ZM192.253 12.96V29.04H196.253V12.96H192.253ZM194.253 31.04H205.533V27.04H194.253V31.04ZM203.533 29.04V38.96H207.533V29.04H203.533ZM205.533 36.96H194.253V40.96H205.533V36.96ZM192.253 38.96V58.32H196.253V38.96H192.253ZM194.253 60.32H209.213V56.32H194.253V60.32ZM207.213 58.32V68H211.213V58.32H207.213ZM209.213 66H179.933V70H209.213V66ZM181.933 68V3.2H177.933V68H181.933ZM215.714 3.2V1.2H213.714V3.2H215.714ZM249.634 6.96L248.497 8.60525V8.60526L249.634 6.96ZM253.394 30.64L251.562 29.8384V29.8384L253.394 30.64ZM247.154 36.64L246.298 34.8325L244.769 35.5569L245.23 37.1849L247.154 36.64ZM256.034 68V70H258.679L257.958 67.4551L256.034 68ZM241.234 68L239.292 68.4762L239.665 70H241.234V68ZM234.114 38.96L236.057 38.4837L235.683 36.96H234.114V38.96ZM230.034 38.96V36.96H228.034V38.96H230.034ZM230.034 68V70H232.034V68H230.034ZM215.714 68H213.714V70H215.714V68ZM240.034 28.48L238.441 27.2712L238.434 27.28L240.034 28.48ZM240.194 15.04L238.567 16.2025L238.577 16.2165L238.587 16.2304L240.194 15.04ZM230.034 12.8V10.8H228.034V12.8H230.034ZM230.034 30.72H228.034V32.72H230.034V30.72ZM215.714 5.2H233.554V1.2H215.714V5.2ZM233.554 5.2C240.468 5.2 245.352 6.43149 248.497 8.60525L250.771 5.31474C246.663 2.47517 240.827 1.2 233.554 1.2V5.2ZM248.497 8.60526C251.367 10.5889 253.074 14.2606 253.074 20.32H257.074C257.074 13.5794 255.155 8.34439 250.771 5.31474L248.497 8.60526ZM253.074 20.32C253.074 24.4993 252.527 27.631 251.562 29.8384L255.226 31.4416C256.501 28.529 257.074 24.7807 257.074 20.32H253.074ZM251.562 29.8384C250.673 31.8703 248.995 33.555 246.298 34.8325L248.01 38.4475C251.393 36.845 253.875 34.5297 255.226 31.4416L251.562 29.8384ZM245.23 37.1849L254.11 68.5449L257.958 67.4551L249.078 36.0951L245.23 37.1849ZM256.034 66H241.234V70H256.034V66ZM243.177 67.5238L236.057 38.4837L232.172 39.4363L239.292 68.4762L243.177 67.5238ZM234.114 36.96H230.034V40.96H234.114V36.96ZM228.034 38.96V68H232.034V38.96H228.034ZM230.034 66H215.714V70H230.034V66ZM217.714 68V3.2H213.714V68H217.714ZM234.034 32.72C237.193 32.72 239.967 31.9032 241.634 29.68L238.434 27.28C237.861 28.0435 236.635 28.72 234.034 28.72V32.72ZM241.627 29.6888C243.177 27.6468 243.794 24.8454 243.794 21.6H239.794C239.794 24.4346 239.238 26.2199 238.441 27.2712L241.627 29.6888ZM243.794 21.6C243.794 18.488 243.24 15.7917 241.801 13.8495L238.587 16.2304C239.282 17.1683 239.794 18.8453 239.794 21.6H243.794ZM241.822 13.8775C240.237 11.6589 237.641 10.8 234.674 10.8V14.8C236.934 14.8 238.018 15.4344 238.567 16.2025L241.822 13.8775ZM234.674 10.8H230.034V14.8H234.674V10.8ZM228.034 12.8V30.72H232.034V12.8H228.034ZM230.034 32.72H234.034V28.72H230.034V32.72ZM263.763 3.2V1.2H261.763V3.2H263.763ZM278.083 3.2H280.083V1.2H278.083V3.2ZM278.083 68V70H280.083V68H278.083ZM263.763 68H261.763V70H263.763V68ZM263.763 5.2H278.083V1.2H263.763V5.2ZM276.083 3.2V68H280.083V3.2H276.083ZM278.083 66H263.763V70H278.083V66ZM265.763 68V3.2H261.763V68H265.763ZM287.745 3.2V1.2H285.745V3.2H287.745ZM316.865 3.2H318.865V1.2H316.865V3.2ZM316.865 12.96V14.96H318.865V12.96H316.865ZM302.065 12.96V10.96H300.065V12.96H302.065ZM302.065 29.04H300.065V31.04H302.065V29.04ZM313.345 29.04H315.345V27.04H313.345V29.04ZM313.345 38.96V40.96H315.345V38.96H313.345ZM302.065 38.96V36.96H300.065V38.96H302.065ZM302.065 58.32H300.065V60.32H302.065V58.32ZM317.025 58.32H319.025V56.32H317.025V58.32ZM317.025 68V70H319.025V68H317.025ZM287.745 68H285.745V70H287.745V68ZM287.745 5.2H316.865V1.2H287.745V5.2ZM314.865 3.2V12.96H318.865V3.2H314.865ZM316.865 10.96H302.065V14.96H316.865V10.96ZM300.065 12.96V29.04H304.065V12.96H300.065ZM302.065 31.04H313.345V27.04H302.065V31.04ZM311.345 29.04V38.96H315.345V29.04H311.345ZM313.345 36.96H302.065V40.96H313.345V36.96ZM300.065 38.96V58.32H304.065V38.96H300.065ZM302.065 60.32H317.025V56.32H302.065V60.32ZM315.025 58.32V68H319.025V58.32H315.025ZM317.025 66H287.745V70H317.025V66ZM289.745 68V3.2H285.745V68H289.745ZM323.527 3.2V1.2H321.527V3.2H323.527ZM333.607 3.2L335.447 2.41671L334.929 1.2H333.607V3.2ZM346.887 34.4L345.046 35.1833L348.887 34.4H346.887ZM346.887 3.2V1.2H344.887V3.2H346.887ZM358.727 3.2H360.727V1.2H358.727V3.2ZM358.727 68V70H360.727V68H358.727ZM349.047 68L347.187 68.7351L347.686 70H349.047V68ZM335.767 34.4L337.627 33.6649L333.767 34.4H335.767ZM335.767 68V70H337.767V68H335.767ZM323.527 68H321.527V70H323.527V68ZM323.527 5.2H333.607V1.2H323.527V5.2ZM331.766 3.98328L345.046 35.1833L348.727 33.6167L335.447 2.41671L331.766 3.98328ZM348.887 34.4V3.2H344.887V34.4H348.887ZM346.887 5.2H358.727V1.2H346.887V5.2ZM356.727 3.2V68H360.727V3.2H356.727ZM358.727 66H349.047V70H358.727V66ZM350.907 67.2649L337.627 33.6649L333.907 35.1351L347.187 68.7351L350.907 67.2649ZM333.767 34.4V68H337.767V34.4H333.767ZM335.767 66H323.527V70H335.767V66ZM325.527 68V3.2H321.527V68H325.527ZM371.89 63.44L370.318 64.6756L370.327 64.6881L370.337 64.7003L371.89 63.44ZM371.89 7.84L373.445 9.09774L373.45 9.09219L373.454 9.08662L371.89 7.84ZM405.57 26.64V28.64H407.57V26.64H405.57ZM391.57 26.64H389.57V28.64H391.57V26.64ZM390.77 14.4L388.913 15.1428V15.1428L390.77 14.4ZM382.93 14.56L384.746 15.3981L384.752 15.3852L384.758 15.3723L382.93 14.56ZM382.93 56.8L381.114 57.6381L381.134 57.6809L381.156 57.7227L382.93 56.8ZM390.69 56.8L388.848 56.0207L388.841 56.0389L388.833 56.0572L390.69 56.8ZM391.57 44.08V42.08H389.57V44.08H391.57ZM405.57 44.08H407.57V42.08H405.57V44.08ZM401.33 63.92L402.861 65.2075L402.866 65.2016L402.871 65.1956L401.33 63.92ZM386.93 66.96C380.193 66.96 375.895 65.2 373.443 62.1797L370.337 64.7003C373.859 69.04 379.588 70.96 386.93 70.96V66.96ZM373.463 62.2044C370.91 58.9556 369.49 54.102 369.49 47.36H365.49C365.49 54.5913 367.004 60.4578 370.318 64.6756L373.463 62.2044ZM369.49 47.36V24H365.49V47.36H369.49ZM369.49 24C369.49 17.0794 370.918 12.2225 373.445 9.09774L370.335 6.58226C366.996 10.7108 365.49 16.6273 365.49 24H369.49ZM373.454 9.08662C375.847 6.08455 380.13 4.32 386.93 4.32V0.319997C379.544 0.319997 373.8 2.23544 370.326 6.59337L373.454 9.08662ZM386.93 4.32C393.453 4.32 397.546 5.89391 399.821 8.51174L402.84 5.88825C399.461 1.99942 393.955 0.319997 386.93 0.319997V4.32ZM399.821 8.51174C402.228 11.282 403.57 15.363 403.57 21.04H407.57C407.57 14.7703 406.086 9.62468 402.84 5.88825L399.821 8.51174ZM403.57 21.04V26.64H407.57V21.04H403.57ZM405.57 24.64H391.57V28.64H405.57V24.64ZM393.57 26.64V20.16H389.57V26.64H393.57ZM393.57 20.16C393.57 17.56 393.301 15.3406 392.627 13.6572L388.913 15.1428C389.307 16.1261 389.57 17.7467 389.57 20.16H393.57ZM392.627 13.6572C391.665 11.2507 389.374 10.4 386.93 10.4V14.4C388.54 14.4 388.809 14.8826 388.913 15.1428L392.627 13.6572ZM386.93 10.4C385.693 10.4 384.501 10.6183 383.46 11.1802C382.388 11.7592 381.595 12.6409 381.103 13.7477L384.758 15.3723C384.906 15.0391 385.099 14.8408 385.361 14.6998C385.653 14.5417 386.141 14.4 386.93 14.4V10.4ZM381.114 13.7219C380.3 15.4873 379.97 17.767 379.97 20.4H383.97C383.97 18.0197 384.281 16.406 384.746 15.3981L381.114 13.7219ZM379.97 20.4V50.88H383.97V20.4H379.97ZM379.97 50.88C379.97 53.559 380.298 55.8687 381.114 57.6381L384.746 55.9619C384.283 54.958 383.97 53.321 383.97 50.88H379.97ZM381.156 57.7227C382.303 59.9294 384.484 60.8 386.93 60.8V56.8C385.43 56.8 384.944 56.3373 384.705 55.8773L381.156 57.7227ZM386.93 60.8C388.124 60.8 389.283 60.6011 390.29 60.0657C391.339 59.5077 392.107 58.6426 392.547 57.5428L388.833 56.0572C388.74 56.2908 388.615 56.4256 388.411 56.5343C388.164 56.6656 387.71 56.8 386.93 56.8V60.8ZM392.532 57.5793C393.272 55.8315 393.57 53.5463 393.57 50.88H389.57C389.57 53.3337 389.282 54.9952 388.848 56.0207L392.532 57.5793ZM393.57 50.88V44.08H389.57V50.88H393.57ZM391.57 46.08H405.57V42.08H391.57V46.08ZM403.57 44.08V49.68H407.57V44.08H403.57ZM403.57 49.68C403.57 55.4666 402.226 59.7032 399.79 62.6444L402.871 65.1956C406.088 61.3101 407.57 56.0534 407.57 49.68H403.57ZM399.8 62.6325C397.52 65.3419 393.435 66.96 386.93 66.96V70.96C393.972 70.96 399.487 69.2181 402.861 65.2075L399.8 62.6325ZM413.448 3.2V1.2H411.448V3.2H413.448ZM442.568 3.2H444.568V1.2H442.568V3.2ZM442.568 12.96V14.96H444.568V12.96H442.568ZM427.768 12.96V10.96H425.768V12.96H427.768ZM427.768 29.04H425.768V31.04H427.768V29.04ZM439.048 29.04H441.048V27.04H439.048V29.04ZM439.048 38.96V40.96H441.048V38.96H439.048ZM427.768 38.96V36.96H425.768V38.96H427.768ZM427.768 58.32H425.768V60.32H427.768V58.32ZM442.728 58.32H444.728V56.32H442.728V58.32ZM442.728 68V70H444.728V68H442.728ZM413.448 68H411.448V70H413.448V68ZM413.448 5.2H442.568V1.2H413.448V5.2ZM440.568 3.2V12.96H444.568V3.2H440.568ZM442.568 10.96H427.768V14.96H442.568V10.96ZM425.768 12.96V29.04H429.768V12.96H425.768ZM427.768 31.04H439.048V27.04H427.768V31.04ZM437.048 29.04V38.96H441.048V29.04H437.048ZM439.048 36.96H427.768V40.96H439.048V36.96ZM425.768 38.96V58.32H429.768V38.96H425.768ZM427.768 60.32H442.728V56.32H427.768V60.32ZM440.728 58.32V68H444.728V58.32H440.728ZM442.728 66H413.448V70H442.728V66ZM415.448 68V3.2H411.448V68H415.448ZM452.59 64.08L451.105 65.4206L451.117 65.4331L451.128 65.4455L452.59 64.08ZM447.79 48.4L447.492 46.4222L445.738 46.686L445.791 48.4597L447.79 48.4ZM460.03 46.56L462.03 46.534L462 44.2414L459.732 44.5822L460.03 46.56ZM461.47 55.44L459.681 56.3344L459.697 56.3664L459.714 56.3977L461.47 55.44ZM467.55 46.88L465.848 47.931L465.859 47.9489L465.871 47.9665L467.55 46.88ZM462.19 41.04L460.876 42.5478L460.886 42.5567L460.896 42.5655L462.19 41.04ZM456.59 36.16L457.904 34.6522L457.893 34.6426L457.882 34.6332L456.59 36.16ZM450.11 28.72L448.365 29.6972L448.376 29.7181L448.389 29.7386L450.11 28.72ZM452.67 6.72L451.33 5.23462L451.324 5.24013L451.318 5.24569L452.67 6.72ZM478.51 7.68L476.804 8.72393L476.809 8.73313L476.815 8.74227L478.51 7.68ZM482.11 20.72L482.355 22.7049L484.166 22.4815L484.109 20.6575L482.11 20.72ZM469.79 22.24L467.791 22.3035L467.86 24.4932L470.035 24.2249L469.79 22.24ZM468.83 15.04L466.926 15.652L466.939 15.6936L466.954 15.7346L468.83 15.04ZM462.67 14.4L460.993 13.31L460.986 13.321L460.979 13.332L462.67 14.4ZM463.15 23.36L461.467 24.4415L461.481 24.4624L461.495 24.483L463.15 23.36ZM467.95 28.48L469.271 26.979L469.269 26.9771L467.95 28.48ZM473.31 33.2L471.988 34.701L472.001 34.7125L472.014 34.7239L473.31 33.2ZM480.75 41.84L482.481 40.8379L480.75 41.84ZM481.23 60.96L479.495 59.9637L479.489 59.9759L481.23 60.96ZM475.31 66.8L474.329 65.0568L475.31 66.8ZM466.43 66.96C460.575 66.96 456.584 65.4253 454.051 62.7145L451.128 65.4455C454.675 69.2413 459.911 70.96 466.43 70.96V66.96ZM454.074 62.7394C451.549 59.9436 449.996 55.282 449.789 48.3403L445.791 48.4597C446.01 55.8114 447.657 61.603 451.105 65.4206L454.074 62.7394ZM448.087 50.3778L460.327 48.5378L459.732 44.5822L447.492 46.4222L448.087 50.3778ZM458.03 46.586C458.084 50.7465 458.56 54.0937 459.681 56.3344L463.259 54.5456C462.566 53.1596 462.082 50.5868 462.03 46.534L458.03 46.586ZM459.714 56.3977C460.325 57.5188 461.139 58.4616 462.193 59.1178C463.254 59.7786 464.449 60.08 465.71 60.08V56.08C465.103 56.08 464.659 55.9414 464.307 55.7222C463.947 55.4984 463.574 55.1212 463.225 54.4823L459.714 56.3977ZM465.71 60.08C467.385 60.08 468.94 59.5027 470 58.1129C470.982 56.8255 471.31 55.131 471.31 53.36H467.31C467.31 54.7357 467.038 55.4012 466.819 55.6871C466.679 55.8706 466.434 56.08 465.71 56.08V60.08ZM471.31 53.36C471.31 50.5311 470.644 47.9798 469.229 45.7935L465.871 47.9665C466.803 49.4068 467.31 51.1756 467.31 53.36H471.31ZM469.251 45.829C467.98 43.7707 466.024 41.6685 463.483 39.5145L460.896 42.5655C463.262 44.5715 464.879 46.3626 465.848 47.931L469.251 45.829ZM463.504 39.5322L457.904 34.6522L455.276 37.6678L460.876 42.5478L463.504 39.5322ZM457.882 34.6332C455.246 32.4033 453.244 30.089 451.831 27.7014L448.389 29.7386C450.069 32.5776 452.387 35.2234 455.298 37.6868L457.882 34.6332ZM451.855 27.7428C450.557 25.4259 449.87 22.6285 449.87 19.28H445.87C445.87 23.1849 446.675 26.6807 448.365 29.6972L451.855 27.7428ZM449.87 19.28C449.87 14.2487 451.334 10.6571 454.021 8.19431L451.318 5.24569C447.605 8.64957 445.87 13.4313 445.87 19.28H449.87ZM454.009 8.20537C456.798 5.69055 460.723 4.32 466.03 4.32V0.319997C460.03 0.319997 455.048 1.88278 451.33 5.23462L454.009 8.20537ZM466.03 4.32C471.818 4.32 475.132 5.9925 476.804 8.72393L480.216 6.63607C477.514 2.22083 472.508 0.319997 466.03 0.319997V4.32ZM476.815 8.74227C478.83 11.9568 479.959 15.9409 480.111 20.7825L484.109 20.6575C483.94 15.2591 482.669 10.5499 480.204 6.61773L476.815 8.74227ZM481.865 18.735L469.545 20.255L470.035 24.2249L482.355 22.7049L481.865 18.735ZM471.789 22.1765C471.681 18.7951 471.36 16.1127 470.705 14.3454L466.954 15.7346C467.366 16.8473 467.685 18.9649 467.791 22.3035L471.789 22.1765ZM470.734 14.428C470.384 13.3392 469.756 12.3765 468.778 11.7084C467.814 11.0506 466.69 10.8 465.55 10.8V14.8C466.116 14.8 466.392 14.9227 466.522 15.0116C466.637 15.0901 466.796 15.2474 466.926 15.652L470.734 14.428ZM465.55 10.8C463.616 10.8 462.039 11.7012 460.993 13.31L464.347 15.49C464.687 14.9655 465.03 14.8 465.55 14.8V10.8ZM460.979 13.332C460.123 14.6869 459.71 16.2088 459.71 17.84H463.71C463.71 16.9112 463.936 16.1397 464.361 15.468L460.979 13.332ZM459.71 17.84C459.71 20.3211 460.257 22.558 461.467 24.4415L464.832 22.2785C464.123 21.1753 463.71 19.7323 463.71 17.84H459.71ZM461.495 24.483C462.643 26.1754 464.384 28.0103 466.63 29.9829L469.269 26.9771C467.143 25.1097 465.683 23.5312 464.805 22.237L461.495 24.483ZM466.628 29.981L471.988 34.701L474.631 31.699L469.271 26.979L466.628 29.981ZM472.014 34.7239C475.074 37.3242 477.393 40.034 479.019 42.8421L482.481 40.8379C480.586 37.566 477.946 34.5158 474.605 31.6761L472.014 34.7239ZM479.019 42.8421C480.573 45.5257 481.39 48.7667 481.39 52.64H485.39C485.39 48.1933 484.447 44.2343 482.481 40.8379L479.019 42.8421ZM481.39 52.64C481.39 55.3491 480.752 57.7761 479.495 59.9638L482.964 61.9562C484.587 59.1306 485.39 56.0109 485.39 52.64H481.39ZM479.489 59.9759C478.289 62.0978 476.585 63.7878 474.329 65.0568L476.29 68.5432C479.154 66.9322 481.397 64.7289 482.971 61.9441L479.489 59.9759ZM474.329 65.0568C472.109 66.3055 469.496 66.96 466.43 66.96V70.96C470.083 70.96 473.39 70.1745 476.29 68.5432L474.329 65.0568ZM510.312 48.72L509.142 47.0982L508.312 47.6969V48.72H510.312ZM525.832 37.52L527.003 39.1418L529.266 37.5083L526.991 35.8903L525.832 37.52ZM510.312 26.48H508.312V27.5117L509.153 28.1097L510.312 26.48ZM510.312 15.2L511.459 13.5615L508.312 11.3587V15.2H510.312ZM535.112 32.56H537.112V31.5187L536.259 30.9215L535.112 32.56ZM535.112 42.64L536.259 44.2785L537.112 43.6813V42.64H535.112ZM510.312 60H508.312V63.8413L511.459 61.6385L510.312 60ZM511.483 50.3418L527.003 39.1418L524.662 35.8982L509.142 47.0982L511.483 50.3418ZM526.991 35.8903L511.471 24.8503L509.153 28.1097L524.673 39.1497L526.991 35.8903ZM512.312 26.48V15.2H508.312V26.48H512.312ZM509.165 16.8385L533.965 34.1985L536.259 30.9215L511.459 13.5615L509.165 16.8385ZM533.112 32.56V42.64H537.112V32.56H533.112ZM533.965 41.0015L509.165 58.3615L511.459 61.6385L536.259 44.2785L533.965 41.0015ZM512.312 60V48.72H508.312V60H512.312Z" fill="#FF8A00"/>
</svg>
