<svg width="438" height="71" viewBox="0 0 438 71" fill="none" xmlns="http://www.w3.org/2000/svg">
<path d="M2.53469 42.64H0.534688V43.6813L1.38776 44.2785L2.53469 42.64ZM2.53469 32.56L1.38776 30.9215L0.534688 31.5187V32.56H2.53469ZM27.3347 15.2H29.3347V11.3587L26.1878 13.5615L27.3347 15.2ZM27.3347 26.48L28.5035 28.1029L29.3347 27.5043V26.48H27.3347ZM11.8947 37.6L10.7259 35.9771L8.47246 37.6L10.7259 39.2229L11.8947 37.6ZM27.3347 48.72H29.3347V47.6957L28.5035 47.0971L27.3347 48.72ZM27.3347 60L26.1878 61.6385L29.3347 63.8413V60H27.3347ZM4.53469 42.64V32.56H0.534688V42.64H4.53469ZM3.68161 34.1985L28.4816 16.8385L26.1878 13.5615L1.38776 30.9215L3.68161 34.1985ZM25.3347 15.2V26.48H29.3347V15.2H25.3347ZM26.1659 24.8571L10.7259 35.9771L13.0635 39.2229L28.5035 28.1029L26.1659 24.8571ZM10.7259 39.2229L26.1659 50.3429L28.5035 47.0971L13.0635 35.9771L10.7259 39.2229ZM25.3347 48.72V60H29.3347V48.72H25.3347ZM28.4816 58.3615L3.68161 41.0015L1.38776 44.2785L26.1878 61.6385L28.4816 58.3615ZM66.3184 3.2V1.2H64.6608L64.3532 2.82878L66.3184 3.2ZM82.6384 3.2L84.6046 2.83347L84.3001 1.2H82.6384V3.2ZM94.7184 68V70H97.1257L96.6846 67.6335L94.7184 68ZM81.5184 68L79.5429 68.3119L79.8095 70H81.5184V68ZM79.3584 54.32L81.334 54.0081L81.0674 52.32H79.3584V54.32ZM69.8384 54.32V52.32H68.1393L67.8647 53.9968L69.8384 54.32ZM67.5984 68V70H69.2976L69.5722 68.3232L67.5984 68ZM54.0784 68L52.1132 67.6288L51.6653 70H54.0784V68ZM77.9984 45.76V47.76H80.289L79.9802 45.4903L77.9984 45.76ZM74.5584 20.48L76.5402 20.2103L72.5767 20.2103L74.5584 20.48ZM71.1184 45.76L69.1367 45.4903L68.8279 47.76H71.1184V45.76ZM66.3184 5.2H82.6384V1.2H66.3184V5.2ZM80.6723 3.56652L92.7523 68.3665L96.6846 67.6335L84.6046 2.83347L80.6723 3.56652ZM94.7184 66H81.5184V70H94.7184V66ZM83.494 67.6881L81.334 54.0081L77.3829 54.6319L79.5429 68.3119L83.494 67.6881ZM79.3584 52.32H69.8384V56.32H79.3584V52.32ZM67.8647 53.9968L65.6247 67.6768L69.5722 68.3232L71.8122 54.6432L67.8647 53.9968ZM67.5984 66H54.0784V70H67.5984V66ZM56.0437 68.3712L68.2837 3.57121L64.3532 2.82878L52.1132 67.6288L56.0437 68.3712ZM79.9802 45.4903L76.5402 20.2103L72.5767 20.7497L76.0167 46.0297L79.9802 45.4903ZM72.5767 20.2103L69.1367 45.4903L73.1002 46.0297L76.5402 20.7497L72.5767 20.2103ZM71.1184 47.76H77.9984V43.76H71.1184V47.76ZM101.261 3.2V1.2H99.2609V3.2H101.261ZM128.861 4.56L128.27 6.4708L128.291 6.47714L128.311 6.48304L128.861 4.56ZM136.061 9.6L137.681 8.42776L136.061 9.6ZM136.301 29.12L134.72 27.8949L134.72 27.8949L136.301 29.12ZM129.261 33.2L128.882 31.2362L129.006 35.1837L129.261 33.2ZM101.261 68H99.2609V70H101.261V68ZM124.541 27.04L122.985 25.7833L122.97 25.8018L122.956 25.8206L124.541 27.04ZM124.141 14.8L122.755 16.2417L122.769 16.2558L122.784 16.2696L124.141 14.8ZM115.581 12.8V10.8H113.581V12.8H115.581ZM115.581 29.12H113.581V31.12H115.581V29.12ZM125.021 55.76L123.48 54.4849L123.475 54.4905L125.021 55.76ZM125.021 40.8L123.475 42.0695L123.489 42.0857L123.502 42.1016L125.021 40.8ZM115.581 38.56V36.56H113.581V38.56H115.581ZM115.581 58H113.581V60H115.581V58ZM101.261 5.2H118.141V1.2H101.261V5.2ZM118.141 5.2C122.223 5.2 125.585 5.64065 128.27 6.4708L129.452 2.64919C126.271 1.66601 122.486 1.2 118.141 1.2V5.2ZM128.311 6.48304C130.869 7.21376 132.891 8.63038 134.44 10.7722L137.681 8.42776C135.604 5.55628 132.826 3.61291 129.41 2.63695L128.311 6.48304ZM134.44 10.7722C135.916 12.8124 136.781 15.8605 136.781 20.16H140.781C140.781 15.3928 139.832 11.401 137.681 8.42776L134.44 10.7722ZM136.781 20.16C136.781 23.739 136.008 26.2333 134.72 27.8949L137.882 30.3451C139.901 27.74 140.781 24.261 140.781 20.16H136.781ZM134.72 27.8949C133.408 29.588 131.52 30.7272 128.882 31.2362L129.64 35.1638C133.082 34.4995 135.887 32.9186 137.882 30.3451L134.72 27.8949ZM129.006 35.1837C132.279 35.6045 134.609 36.9415 136.213 39.1097L139.429 36.7303C137.086 33.5652 133.71 31.7555 129.516 31.2163L129.006 35.1837ZM136.213 39.1097C137.851 41.3223 138.781 44.4813 138.781 48.8H142.781C142.781 43.9454 141.738 39.8511 139.429 36.7303L136.213 39.1097ZM138.781 48.8C138.781 54.8811 137.232 59.077 134.481 61.7713C131.723 64.473 127.416 66 121.181 66V70C128.012 70 133.505 68.327 137.28 64.6287C141.063 60.923 142.781 55.5189 142.781 48.8H138.781ZM121.181 66H101.261V70H121.181V66ZM103.261 68V3.2H99.2609V68H103.261ZM118.381 31.12C121.598 31.12 124.475 30.4066 126.126 28.2594L122.956 25.8206C122.474 26.4468 121.243 27.12 118.381 27.12V31.12ZM126.097 28.2967C127.638 26.3882 128.221 23.6781 128.221 20.56H124.221C124.221 23.3086 123.684 24.9185 122.985 25.7833L126.097 28.2967ZM128.221 20.56C128.221 17.6488 127.425 15.1097 125.497 13.3304L122.784 16.2696C123.63 17.0503 124.221 18.3512 124.221 20.56H128.221ZM125.527 13.3583C123.644 11.5476 121.042 10.8 118.061 10.8V14.8C120.413 14.8 121.865 15.3857 122.755 16.2417L125.527 13.3583ZM118.061 10.8H115.581V14.8H118.061V10.8ZM113.581 12.8V29.12H117.581V12.8H113.581ZM115.581 31.12H118.381V27.12H115.581V31.12ZM118.621 60C121.916 60 124.786 59.1974 126.566 57.0295L123.475 54.4905C122.803 55.3092 121.406 56 118.621 56V60ZM126.562 57.0351C128.274 54.9662 128.941 52.0096 128.941 48.56H124.941C124.941 51.6171 124.328 53.4604 123.48 54.4849L126.562 57.0351ZM128.941 48.56C128.941 44.7676 128.305 41.5586 126.539 39.4984L123.502 42.1016C124.297 43.0281 124.941 44.9924 124.941 48.56H128.941ZM126.566 39.5305C124.78 37.3558 121.876 36.56 118.541 36.56V40.56C121.393 40.56 122.809 41.2575 123.475 42.0695L126.566 39.5305ZM118.541 36.56H115.581V40.56H118.541V36.56ZM113.581 38.56V58H117.581V38.56H113.581ZM115.581 60H118.621V56H115.581V60ZM151.892 63.6L150.348 64.8714L150.353 64.877L150.358 64.8826L151.892 63.6ZM151.892 7.68L153.417 8.97395L153.422 8.9683L153.427 8.96262L151.892 7.68ZM181.892 7.68L180.358 8.96262L180.363 8.96931L180.369 8.97596L181.892 7.68ZM181.892 63.6L180.359 62.3152L180.358 62.3174L181.892 63.6ZM170.852 56.8L172.655 57.6655L172.662 57.6518L172.668 57.6381L170.852 56.8ZM170.852 14.4L169.049 15.2655L169.049 15.2655L170.852 14.4ZM163.012 14.48L164.815 15.3455L164.822 15.3318L164.828 15.3181L163.012 14.48ZM162.932 56.8L161.09 57.5793L161.096 57.5924L161.102 57.6055L162.932 56.8ZM166.852 66.96C160.157 66.96 155.875 65.2467 153.427 62.3174L150.358 64.8826C153.883 69.0999 159.574 70.96 166.852 70.96V66.96ZM153.436 62.3286C150.86 59.2006 149.412 54.3985 149.412 47.6H145.412C145.412 54.8815 146.951 60.7461 150.348 64.8714L153.436 62.3286ZM149.412 47.6V23.52H145.412V47.6H149.412ZM149.412 23.52C149.412 16.7153 150.863 11.9848 153.417 8.97395L150.367 6.38604C146.949 10.4152 145.412 16.2446 145.412 23.52H149.412ZM153.427 8.96262C155.875 6.03326 160.157 4.32 166.852 4.32V0.319997C159.574 0.319997 153.883 2.18007 150.358 6.39738L153.427 8.96262ZM166.852 4.32C173.607 4.32 177.912 6.03629 180.358 8.96262L183.427 6.39738C179.899 2.17704 174.177 0.319997 166.852 0.319997V4.32ZM180.369 8.97596C182.981 12.0469 184.452 16.7832 184.452 23.52H188.452C188.452 16.2834 186.883 10.4598 183.416 6.38404L180.369 8.97596ZM184.452 23.52V47.6H188.452V23.52H184.452ZM184.452 47.6C184.452 54.3917 182.981 59.1881 180.359 62.3152L183.425 64.8848C186.884 60.7585 188.452 54.8883 188.452 47.6H184.452ZM180.358 62.3174C177.912 65.2437 173.607 66.96 166.852 66.96V70.96C174.177 70.96 179.899 69.103 183.427 64.8826L180.358 62.3174ZM166.852 60.8C169.316 60.8 171.559 59.9485 172.655 57.6655L169.049 55.9345C168.865 56.3182 168.442 56.8 166.852 56.8V60.8ZM172.668 57.6381C173.477 55.8858 173.812 53.696 173.812 51.2H169.812C169.812 53.3974 169.508 54.9409 169.036 55.9619L172.668 57.6381ZM173.812 51.2V20H169.812V51.2H173.812ZM173.812 20C173.812 17.4655 173.481 15.2552 172.655 13.5345L169.049 15.2655C169.503 16.2115 169.812 17.7345 169.812 20H173.812ZM172.655 13.5345C171.559 11.2515 169.316 10.4 166.852 10.4V14.4C168.442 14.4 168.865 14.8818 169.049 15.2655L172.655 13.5345ZM166.852 10.4C165.662 10.4 164.511 10.6138 163.5 11.1614C162.461 11.7242 161.688 12.5772 161.196 13.6419L164.828 15.3181C164.977 14.9962 165.164 14.8091 165.405 14.6786C165.674 14.5329 166.122 14.4 166.852 14.4V10.4ZM161.209 13.6145C160.385 15.3306 160.052 17.5107 160.052 20H164.052C164.052 17.796 164.359 16.296 164.815 15.3455L161.209 13.6145ZM160.052 20V51.2H164.052V20H160.052ZM160.052 51.2C160.052 53.6809 160.357 55.8473 161.09 57.5793L164.774 56.0207C164.334 54.9794 164.052 53.4124 164.052 51.2H160.052ZM161.102 57.6055C162.133 59.9489 164.398 60.8 166.852 60.8V56.8C165.253 56.8 164.905 56.3178 164.763 55.9945L161.102 57.6055ZM202.367 66.64L201.382 68.3805L201.395 68.3876L201.407 68.3945L202.367 66.64ZM196.367 59.68L194.487 60.3609L194.494 60.3806L194.501 60.4002L196.367 59.68ZM194.687 3.2V1.2H192.687V3.2H194.687ZM208.847 3.2H210.847V1.2H208.847V3.2ZM209.807 56.32L207.959 57.0847L207.97 57.1116L207.982 57.1381L209.807 56.32ZM217.887 56.32L216.039 55.5553L216.039 55.5553L217.887 56.32ZM218.847 3.2V1.2H216.847V3.2H218.847ZM233.087 3.2H235.087V1.2H233.087V3.2ZM231.327 59.68L233.193 60.4002L233.197 60.3893L231.327 59.68ZM225.327 66.64L226.301 68.3868L226.312 68.3805L225.327 66.64ZM213.887 66.96C209.213 66.96 205.748 66.2098 203.327 64.8855L201.407 68.3945C204.64 70.1635 208.855 70.96 213.887 70.96V66.96ZM203.352 64.8995C200.93 63.5283 199.24 61.5696 198.233 58.9598L194.501 60.4002C195.841 63.8704 198.151 66.5517 201.382 68.3805L203.352 64.8995ZM198.248 58.9991C197.233 56.1977 196.687 52.5284 196.687 47.92H192.687C192.687 52.805 193.261 56.9756 194.487 60.3609L198.248 58.9991ZM196.687 47.92V3.2H192.687V47.92H196.687ZM194.687 5.2H208.847V1.2H194.687V5.2ZM206.847 3.2V50.08H210.847V3.2H206.847ZM206.847 50.08C206.847 52.8245 207.179 55.1982 207.959 57.0847L211.655 55.5553C211.156 54.3484 210.847 52.5622 210.847 50.08H206.847ZM207.982 57.1381C208.487 58.2652 209.278 59.184 210.359 59.7986C211.416 60.4 212.627 60.64 213.887 60.64V56.64C213.121 56.64 212.638 56.4934 212.336 56.3214C212.057 56.1627 211.82 55.9215 211.632 55.5019L207.982 57.1381ZM213.887 60.64C215.145 60.64 216.358 60.4008 217.411 59.7901C218.49 59.1638 219.263 58.2268 219.735 57.0847L216.039 55.5553C215.872 55.9599 215.657 56.1829 215.404 56.3299C215.123 56.4926 214.656 56.64 213.887 56.64V60.64ZM219.735 57.0847C220.516 55.1982 220.847 52.8245 220.847 50.08H216.847C216.847 52.5622 216.539 54.3484 216.039 55.5553L219.735 57.0847ZM220.847 50.08V3.2H216.847V50.08H220.847ZM218.847 5.2H233.087V1.2H218.847V5.2ZM231.087 3.2V47.92H235.087V3.2H231.087ZM231.087 47.92C231.087 52.5209 230.516 56.1795 229.457 58.9707L233.197 60.3893C234.485 56.9939 235.087 52.8124 235.087 47.92H231.087ZM229.461 58.9598C228.454 61.5696 226.764 63.5283 224.342 64.8995L226.312 68.3805C229.543 66.5517 231.854 63.8704 233.193 60.4002L229.461 58.9598ZM224.353 64.8933C221.994 66.2086 218.565 66.96 213.887 66.96V70.96C218.916 70.96 223.113 70.1647 226.301 68.3867L224.353 64.8933ZM248.038 13.84H250.038V11.84H248.038V13.84ZM238.278 13.84H236.278V15.84H238.278V13.84ZM238.278 3.2V1.2H236.278V3.2H238.278ZM272.118 3.2H274.118V1.2H272.118V3.2ZM272.118 13.84V15.84H274.118V13.84H272.118ZM262.438 13.84V11.84H260.438V13.84H262.438ZM262.438 68V70H264.438V68H262.438ZM248.038 68H246.038V70H248.038V68ZM248.038 11.84H238.278V15.84H248.038V11.84ZM240.278 13.84V3.2H236.278V13.84H240.278ZM238.278 5.2H272.118V1.2H238.278V5.2ZM270.118 3.2V13.84H274.118V3.2H270.118ZM272.118 11.84H262.438V15.84H272.118V11.84ZM260.438 13.84V68H264.438V13.84H260.438ZM262.438 66H248.038V70H262.438V66ZM250.038 68V13.84H246.038V68H250.038ZM299.172 3.2V1.2H297.206L297.172 3.16543L299.172 3.2ZM314.532 3.2L316.497 2.82865L316.19 1.2H314.532V3.2ZM321.652 40.88L319.687 41.2513L323.612 41.2794L321.652 40.88ZM329.332 3.2V1.2H327.699L327.372 2.80056L329.332 3.2ZM344.132 3.2L346.132 3.16543L346.098 1.2H344.132V3.2ZM345.252 68V70H347.287L347.252 67.9654L345.252 68ZM335.092 68L333.093 68.0556L333.147 70H335.092V68ZM333.892 24.88L335.891 24.8244L331.922 24.5364L333.892 24.88ZM326.372 68V70H328.054L328.342 68.3436L326.372 68ZM317.332 68L315.365 68.3622L315.667 70H317.332V68ZM309.332 24.56L311.299 24.1978L307.333 24.5158L309.332 24.56ZM308.372 68V70H310.328L310.372 68.0442L308.372 68ZM298.052 68L296.052 67.9654L296.017 70H298.052V68ZM299.172 5.2H314.532V1.2H299.172V5.2ZM312.567 3.57134L319.687 41.2513L323.617 40.5087L316.497 2.82865L312.567 3.57134ZM323.612 41.2794L331.292 3.59943L327.372 2.80056L319.692 40.4806L323.612 41.2794ZM329.332 5.2H344.132V1.2H329.332V5.2ZM342.132 3.23456L343.252 68.0346L347.252 67.9654L346.132 3.16543L342.132 3.23456ZM345.252 66H335.092V70H345.252V66ZM337.091 67.9444L335.891 24.8244L331.893 24.9356L333.093 68.0556L337.091 67.9444ZM331.922 24.5364L324.402 67.6564L328.342 68.3436L335.862 25.2236L331.922 24.5364ZM326.372 66H317.332V70H326.372V66ZM319.299 67.6378L311.299 24.1978L307.365 24.9222L315.365 68.3622L319.299 67.6378ZM307.333 24.5158L306.373 67.9558L310.372 68.0442L311.332 24.6042L307.333 24.5158ZM308.372 66H298.052V70H308.372V66ZM300.052 68.0346L301.172 3.23456L297.172 3.16543L296.052 67.9654L300.052 68.0346ZM354.62 3.2V1.2H352.62V3.2H354.62ZM383.74 3.2H385.74V1.2H383.74V3.2ZM383.74 12.96V14.96H385.74V12.96H383.74ZM368.94 12.96V10.96H366.94V12.96H368.94ZM368.94 29.04H366.94V31.04H368.94V29.04ZM380.22 29.04H382.22V27.04H380.22V29.04ZM380.22 38.96V40.96H382.22V38.96H380.22ZM368.94 38.96V36.96H366.94V38.96H368.94ZM368.94 58.32H366.94V60.32H368.94V58.32ZM383.9 58.32H385.9V56.32H383.9V58.32ZM383.9 68V70H385.9V68H383.9ZM354.62 68H352.62V70H354.62V68ZM354.62 5.2H383.74V1.2H354.62V5.2ZM381.74 3.2V12.96H385.74V3.2H381.74ZM383.74 10.96H368.94V14.96H383.74V10.96ZM366.94 12.96V29.04H370.94V12.96H366.94ZM368.94 31.04H380.22V27.04H368.94V31.04ZM378.22 29.04V38.96H382.22V29.04H378.22ZM380.22 36.96H368.94V40.96H380.22V36.96ZM366.94 38.96V58.32H370.94V38.96H366.94ZM368.94 60.32H383.9V56.32H368.94V60.32ZM381.9 58.32V68H385.9V58.32H381.9ZM383.9 66H354.62V70H383.9V66ZM356.62 68V3.2H352.62V68H356.62ZM410.39 48.72L409.22 47.0982L408.39 47.6969V48.72H410.39ZM425.91 37.52L427.081 39.1418L429.344 37.5083L427.07 35.8903L425.91 37.52ZM410.39 26.48H408.39V27.5117L409.231 28.1097L410.39 26.48ZM410.39 15.2L411.537 13.5615L408.39 11.3587V15.2H410.39ZM435.19 32.56H437.19V31.5187L436.337 30.9215L435.19 32.56ZM435.19 42.64L436.337 44.2785L437.19 43.6813V42.64H435.19ZM410.39 60H408.39V63.8413L411.537 61.6385L410.39 60ZM411.561 50.3418L427.081 39.1418L424.74 35.8982L409.22 47.0982L411.561 50.3418ZM427.07 35.8903L411.55 24.8503L409.231 28.1097L424.751 39.1497L427.07 35.8903ZM412.39 26.48V15.2H408.39V26.48H412.39ZM409.243 16.8385L434.043 34.1985L436.337 30.9215L411.537 13.5615L409.243 16.8385ZM433.19 32.56V42.64H437.19V32.56H433.19ZM434.043 41.0015L409.243 58.3615L411.537 61.6385L436.337 44.2785L434.043 41.0015ZM412.39 60V48.72H408.39V60H412.39Z" fill="#FF8A00"/>
</svg>
