<svg width="677" height="69" viewBox="0 0 677 69" fill="none" xmlns="http://www.w3.org/2000/svg">
<path d="M2.34719 41.64H0.347188V42.6813L1.20026 43.2785L2.34719 41.64ZM2.34719 31.56L1.20026 29.9215L0.347188 30.5187V31.56H2.34719ZM27.1472 14.2H29.1472V10.3587L26.0003 12.5615L27.1472 14.2ZM27.1472 25.48L28.316 27.1029L29.1472 26.5043V25.48H27.1472ZM11.7072 36.6L10.5384 34.9771L8.28496 36.6L10.5384 38.2229L11.7072 36.6ZM27.1472 47.72H29.1472V46.6957L28.316 46.0971L27.1472 47.72ZM27.1472 59L26.0003 60.6385L29.1472 62.8413V59H27.1472ZM4.34719 41.64V31.56H0.347188V41.64H4.34719ZM3.49411 33.1985L28.2941 15.8385L26.0003 12.5615L1.20026 29.9215L3.49411 33.1985ZM25.1472 14.2V25.48H29.1472V14.2H25.1472ZM25.9784 23.8571L10.5384 34.9771L12.876 38.2229L28.316 27.1029L25.9784 23.8571ZM10.5384 38.2229L25.9784 49.3429L28.316 46.0971L12.876 34.9771L10.5384 38.2229ZM25.1472 47.72V59H29.1472V47.72H25.1472ZM28.2941 57.3615L3.49411 40.0015L1.20026 43.2785L26.0003 60.6385L28.2941 57.3615ZM62.8509 12.84H64.8509V10.84H62.8509V12.84ZM53.0909 12.84H51.0909V14.84H53.0909V12.84ZM53.0909 2.2V0.199995H51.0909V2.2H53.0909ZM86.9309 2.2H88.9309V0.199995H86.9309V2.2ZM86.9309 12.84V14.84H88.9309V12.84H86.9309ZM77.2509 12.84V10.84H75.2509V12.84H77.2509ZM77.2509 67V69H79.2509V67H77.2509ZM62.8509 67H60.8509V69H62.8509V67ZM62.8509 10.84H53.0909V14.84H62.8509V10.84ZM55.0909 12.84V2.2H51.0909V12.84H55.0909ZM53.0909 4.2H86.9309V0.199995H53.0909V4.2ZM84.9309 2.2V12.84H88.9309V2.2H84.9309ZM86.9309 10.84H77.2509V14.84H86.9309V10.84ZM75.2509 12.84V67H79.2509V12.84H75.2509ZM77.2509 65H62.8509V69H77.2509V65ZM64.8509 67V12.84H60.8509V67H64.8509ZM98.8653 2.2V0.199995H97.2077L96.9001 1.82878L98.8653 2.2ZM115.185 2.2L117.151 1.83347L116.847 0.199995H115.185V2.2ZM127.265 67V69H129.673L129.231 66.6335L127.265 67ZM114.065 67L112.09 67.3119L112.356 69H114.065V67ZM111.905 53.32L113.881 53.0081L113.614 51.32H111.905V53.32ZM102.385 53.32V51.32H100.686L100.412 52.9968L102.385 53.32ZM100.145 67V69H101.844L102.119 67.3232L100.145 67ZM86.6253 67L84.6601 66.6288L84.2122 69H86.6253V67ZM110.545 44.76V46.76H112.836L112.527 44.4903L110.545 44.76ZM107.105 19.48L109.087 19.2103L105.124 19.2103L107.105 19.48ZM103.665 44.76L101.684 44.4903L101.375 46.76H103.665V44.76ZM98.8653 4.2H115.185V0.199995H98.8653V4.2ZM113.219 2.56652L125.299 67.3665L129.231 66.6335L117.151 1.83347L113.219 2.56652ZM127.265 65H114.065V69H127.265V65ZM116.041 66.6881L113.881 53.0081L109.93 53.6319L112.09 67.3119L116.041 66.6881ZM111.905 51.32H102.385V55.32H111.905V51.32ZM100.412 52.9968L98.1716 66.6768L102.119 67.3232L104.359 53.6432L100.412 52.9968ZM100.145 65H86.6253V69H100.145V65ZM88.5906 67.3712L100.831 2.57121L96.9001 1.82878L84.6601 66.6288L88.5906 67.3712ZM112.527 44.4903L109.087 19.2103L105.124 19.7497L108.564 45.0297L112.527 44.4903ZM105.124 19.2103L101.684 44.4903L105.647 45.0297L109.087 19.7497L105.124 19.2103ZM103.665 46.76H110.545V42.76H103.665V46.76ZM134.688 2.2V0.199995H132.722L132.688 2.16543L134.688 2.2ZM150.048 2.2L152.013 1.82865L151.705 0.199995H150.048V2.2ZM157.168 39.88L155.203 40.2513L159.128 40.2794L157.168 39.88ZM164.848 2.2V0.199995H163.214L162.888 1.80056L164.848 2.2ZM179.648 2.2L181.648 2.16543L181.614 0.199995H179.648V2.2ZM180.768 67V69H182.803L182.768 66.9654L180.768 67ZM170.608 67L168.609 67.0556L168.663 69H170.608V67ZM169.408 23.88L171.407 23.8244L167.438 23.5364L169.408 23.88ZM161.888 67V69H163.569L163.858 67.3436L161.888 67ZM152.848 67L150.881 67.3622L151.183 69H152.848V67ZM144.848 23.56L146.815 23.1978L142.848 23.5158L144.848 23.56ZM143.888 67V69H145.844L145.887 67.0442L143.888 67ZM133.568 67L131.568 66.9654L131.533 69H133.568V67ZM134.688 4.2H150.048V0.199995H134.688V4.2ZM148.083 2.57134L155.203 40.2513L159.133 39.5087L152.013 1.82865L148.083 2.57134ZM159.128 40.2794L166.808 2.59943L162.888 1.80056L155.208 39.4806L159.128 40.2794ZM164.848 4.2H179.648V0.199995H164.848V4.2ZM177.648 2.23456L178.768 67.0346L182.768 66.9654L181.648 2.16543L177.648 2.23456ZM180.768 65H170.608V69H180.768V65ZM172.607 66.9444L171.407 23.8244L167.409 23.9356L168.609 67.0556L172.607 66.9444ZM167.438 23.5364L159.918 66.6564L163.858 67.3436L171.378 24.2236L167.438 23.5364ZM161.888 65H152.848V69H161.888V65ZM154.815 66.6378L146.815 23.1978L142.881 23.9222L150.881 67.3622L154.815 66.6378ZM142.848 23.5158L141.888 66.9558L145.887 67.0442L146.847 23.6042L142.848 23.5158ZM143.888 65H133.568V69H143.888V65ZM135.568 67.0346L136.688 2.23456L132.688 2.16543L131.568 66.9654L135.568 67.0346ZM190.136 2.2V0.199995H188.136V2.2H190.136ZM217.736 3.56L217.145 5.4708L217.166 5.47714L217.186 5.48304L217.736 3.56ZM224.936 8.6L226.556 7.42776L224.936 8.6ZM225.176 28.12L223.595 26.8949L223.595 26.8949L225.176 28.12ZM218.136 32.2L217.757 30.2362L217.881 34.1837L218.136 32.2ZM190.136 67H188.136V69H190.136V67ZM213.416 26.04L211.86 24.7833L211.845 24.8018L211.831 24.8206L213.416 26.04ZM213.016 13.8L211.63 15.2417L211.644 15.2558L211.659 15.2696L213.016 13.8ZM204.456 11.8V9.8H202.456V11.8H204.456ZM204.456 28.12H202.456V30.12H204.456V28.12ZM213.896 54.76L212.355 53.4849L212.35 53.4905L213.896 54.76ZM213.896 39.8L212.35 41.0695L212.364 41.0857L212.377 41.1016L213.896 39.8ZM204.456 37.56V35.56H202.456V37.56H204.456ZM204.456 57H202.456V59H204.456V57ZM190.136 4.2H207.016V0.199995H190.136V4.2ZM207.016 4.2C211.098 4.2 214.46 4.64065 217.145 5.4708L218.327 1.64919C215.146 0.666006 211.361 0.199995 207.016 0.199995V4.2ZM217.186 5.48304C219.744 6.21376 221.766 7.63038 223.315 9.77224L226.556 7.42776C224.479 4.55628 221.701 2.61291 218.285 1.63695L217.186 5.48304ZM223.315 9.77224C224.791 11.8124 225.656 14.8605 225.656 19.16H229.656C229.656 14.3928 228.707 10.401 226.556 7.42776L223.315 9.77224ZM225.656 19.16C225.656 22.739 224.883 25.2333 223.595 26.8949L226.757 29.3451C228.776 26.74 229.656 23.261 229.656 19.16H225.656ZM223.595 26.8949C222.283 28.588 220.395 29.7272 217.757 30.2362L218.515 34.1638C221.957 33.4995 224.762 31.9186 226.757 29.3451L223.595 26.8949ZM217.881 34.1837C221.154 34.6045 223.484 35.9415 225.088 38.1097L228.304 35.7303C225.961 32.5652 222.585 30.7555 218.391 30.2163L217.881 34.1837ZM225.088 38.1097C226.726 40.3223 227.656 43.4813 227.656 47.8H231.656C231.656 42.9454 230.613 38.8511 228.304 35.7303L225.088 38.1097ZM227.656 47.8C227.656 53.8811 226.107 58.077 223.356 60.7713C220.598 63.473 216.291 65 210.056 65V69C216.887 69 222.38 67.327 226.155 63.6287C229.938 59.923 231.656 54.5189 231.656 47.8H227.656ZM210.056 65H190.136V69H210.056V65ZM192.136 67V2.2H188.136V67H192.136ZM207.256 30.12C210.473 30.12 213.35 29.4066 215.001 27.2594L211.831 24.8206C211.349 25.4468 210.118 26.12 207.256 26.12V30.12ZM214.972 27.2967C216.513 25.3882 217.096 22.6781 217.096 19.56H213.096C213.096 22.3086 212.559 23.9185 211.86 24.7833L214.972 27.2967ZM217.096 19.56C217.096 16.6488 216.3 14.1097 214.372 12.3304L211.659 15.2696C212.505 16.0503 213.096 17.3512 213.096 19.56H217.096ZM214.402 12.3583C212.519 10.5476 209.917 9.8 206.936 9.8V13.8C209.288 13.8 210.74 14.3857 211.63 15.2417L214.402 12.3583ZM206.936 9.8H204.456V13.8H206.936V9.8ZM202.456 11.8V28.12H206.456V11.8H202.456ZM204.456 30.12H207.256V26.12H204.456V30.12ZM207.496 59C210.791 59 213.661 58.1974 215.441 56.0295L212.35 53.4905C211.678 54.3092 210.281 55 207.496 55V59ZM215.437 56.0351C217.149 53.9662 217.816 51.0096 217.816 47.56H213.816C213.816 50.6171 213.203 52.4604 212.355 53.4849L215.437 56.0351ZM217.816 47.56C217.816 43.7676 217.18 40.5586 215.414 38.4984L212.377 41.1016C213.172 42.0281 213.816 43.9924 213.816 47.56H217.816ZM215.441 38.5305C213.655 36.3558 210.751 35.56 207.416 35.56V39.56C210.268 39.56 211.684 40.2575 212.35 41.0695L215.441 38.5305ZM207.416 35.56H204.456V39.56H207.416V35.56ZM202.456 37.56V57H206.456V37.56H202.456ZM204.456 59H207.496V55H204.456V59ZM246.131 2.2V0.199995H244.473L244.166 1.82878L246.131 2.2ZM262.451 2.2L264.417 1.83347L264.113 0.199995H262.451V2.2ZM274.531 67V69H276.938L276.497 66.6335L274.531 67ZM261.331 67L259.355 67.3119L259.622 69H261.331V67ZM259.171 53.32L261.146 53.0081L260.88 51.32H259.171V53.32ZM249.651 53.32V51.32H247.952L247.677 52.9968L249.651 53.32ZM247.411 67V69H249.11L249.385 67.3232L247.411 67ZM233.891 67L231.926 66.6288L231.478 69H233.891V67ZM257.811 44.76V46.76H260.102L259.793 44.4903L257.811 44.76ZM254.371 19.48L256.353 19.2103L252.389 19.2103L254.371 19.48ZM250.931 44.76L248.949 44.4903L248.64 46.76H250.931V44.76ZM246.131 4.2H262.451V0.199995H246.131V4.2ZM260.485 2.56652L272.565 67.3665L276.497 66.6335L264.417 1.83347L260.485 2.56652ZM274.531 65H261.331V69H274.531V65ZM263.306 66.6881L261.146 53.0081L257.195 53.6319L259.355 67.3119L263.306 66.6881ZM259.171 51.32H249.651V55.32H259.171V51.32ZM247.677 52.9968L245.437 66.6768L249.385 67.3232L251.625 53.6432L247.677 52.9968ZM247.411 65H233.891V69H247.411V65ZM235.856 67.3712L248.096 2.57121L244.166 1.82878L231.926 66.6288L235.856 67.3712ZM259.793 44.4903L256.353 19.2103L252.389 19.7497L255.829 45.0297L259.793 44.4903ZM252.389 19.2103L248.949 44.4903L252.913 45.0297L256.353 19.7497L252.389 19.2103ZM250.931 46.76H257.811V42.76H250.931V46.76ZM281.313 2.2V0.199995H279.313V2.2H281.313ZM295.633 2.2H297.633V0.199995H295.633V2.2ZM295.633 28.44H293.633V30.44H295.633V28.44ZM305.633 28.44V30.44H307.633V28.44H305.633ZM305.633 2.2V0.199995H303.633V2.2H305.633ZM320.033 2.2H322.033V0.199995H320.033V2.2ZM320.033 67V69H322.033V67H320.033ZM305.633 67H303.633V69H305.633V67ZM305.633 38.68H307.633V36.68H305.633V38.68ZM295.633 38.68V36.68H293.633V38.68H295.633ZM295.633 67V69H297.633V67H295.633ZM281.313 67H279.313V69H281.313V67ZM281.313 4.2H295.633V0.199995H281.313V4.2ZM293.633 2.2V28.44H297.633V2.2H293.633ZM295.633 30.44H305.633V26.44H295.633V30.44ZM307.633 28.44V2.2H303.633V28.44H307.633ZM305.633 4.2H320.033V0.199995H305.633V4.2ZM318.033 2.2V67H322.033V2.2H318.033ZM320.033 65H305.633V69H320.033V65ZM307.633 67V38.68H303.633V67H307.633ZM305.633 36.68H295.633V40.68H305.633V36.68ZM293.633 38.68V67H297.633V38.68H293.633ZM295.633 65H281.313V69H295.633V65ZM283.313 67V2.2H279.313V67H283.313ZM351.25 2.2V0.199995H349.285L349.251 2.16543L351.25 2.2ZM366.61 2.2L368.576 1.82865L368.268 0.199995H366.61V2.2ZM373.73 39.88L371.765 40.2513L375.69 40.2794L373.73 39.88ZM381.41 2.2V0.199995H379.777L379.451 1.80056L381.41 2.2ZM396.21 2.2L398.21 2.16543L398.176 0.199995H396.21V2.2ZM397.33 67V69H399.365L399.33 66.9654L397.33 67ZM387.17 67L385.171 67.0556L385.225 69H387.17V67ZM385.97 23.88L387.97 23.8244L384 23.5364L385.97 23.88ZM378.45 67V69H380.132L380.421 67.3436L378.45 67ZM369.41 67L367.443 67.3622L367.745 69H369.41V67ZM361.41 23.56L363.377 23.1978L359.411 23.5158L361.41 23.56ZM360.45 67V69H362.407L362.45 67.0442L360.45 67ZM350.13 67L348.131 66.9654L348.095 69H350.13V67ZM351.25 4.2H366.61V0.199995H351.25V4.2ZM364.645 2.57134L371.765 40.2513L375.696 39.5087L368.576 1.82865L364.645 2.57134ZM375.69 40.2794L383.37 2.59943L379.451 1.80056L371.771 39.4806L375.69 40.2794ZM381.41 4.2H396.21V0.199995H381.41V4.2ZM394.211 2.23456L395.331 67.0346L399.33 66.9654L398.21 2.16543L394.211 2.23456ZM397.33 65H387.17V69H397.33V65ZM389.17 66.9444L387.97 23.8244L383.971 23.9356L385.171 67.0556L389.17 66.9444ZM384 23.5364L376.48 66.6564L380.421 67.3436L387.941 24.2236L384 23.5364ZM378.45 65H369.41V69H378.45V65ZM371.377 66.6378L363.377 23.1978L359.443 23.9222L367.443 67.3622L371.377 66.6378ZM359.411 23.5158L358.451 66.9558L362.45 67.0442L363.41 23.6042L359.411 23.5158ZM360.45 65H350.13V69H360.45V65ZM352.13 67.0346L353.25 2.23456L349.251 2.16543L348.131 66.9654L352.13 67.0346ZM406.698 2.2V0.199995H404.698V2.2H406.698ZM435.818 2.2H437.818V0.199995H435.818V2.2ZM435.818 11.96V13.96H437.818V11.96H435.818ZM421.018 11.96V9.96H419.018V11.96H421.018ZM421.018 28.04H419.018V30.04H421.018V28.04ZM432.298 28.04H434.298V26.04H432.298V28.04ZM432.298 37.96V39.96H434.298V37.96H432.298ZM421.018 37.96V35.96H419.018V37.96H421.018ZM421.018 57.32H419.018V59.32H421.018V57.32ZM435.978 57.32H437.978V55.32H435.978V57.32ZM435.978 67V69H437.978V67H435.978ZM406.698 67H404.698V69H406.698V67ZM406.698 4.2H435.818V0.199995H406.698V4.2ZM433.818 2.2V11.96H437.818V2.2H433.818ZM435.818 9.96H421.018V13.96H435.818V9.96ZM419.018 11.96V28.04H423.018V11.96H419.018ZM421.018 30.04H432.298V26.04H421.018V30.04ZM430.298 28.04V37.96H434.298V28.04H430.298ZM432.298 35.96H421.018V39.96H432.298V35.96ZM419.018 37.96V57.32H423.018V37.96H419.018ZM421.018 59.32H435.978V55.32H421.018V59.32ZM433.978 57.32V67H437.978V57.32H433.978ZM435.978 65H406.698V69H435.978V65ZM408.698 67V2.2H404.698V67H408.698ZM443.36 2.2V0.199995H441.394L441.36 2.16543L443.36 2.2ZM458.72 2.2L460.685 1.82865L460.377 0.199995H458.72V2.2ZM465.84 39.88L463.874 40.2513L467.799 40.2794L465.84 39.88ZM473.52 2.2V0.199995H471.886L471.56 1.80056L473.52 2.2ZM488.32 2.2L490.319 2.16543L490.285 0.199995H488.32V2.2ZM489.44 67V69H491.475L491.439 66.9654L489.44 67ZM479.28 67L477.28 67.0556L477.335 69H479.28V67ZM478.08 23.88L480.079 23.8244L476.109 23.5364L478.08 23.88ZM470.56 67V69H472.241L472.53 67.3436L470.56 67ZM461.52 67L459.553 67.3622L459.854 69H461.52V67ZM453.52 23.56L455.487 23.1978L451.52 23.5158L453.52 23.56ZM452.56 67V69H454.516L454.559 67.0442L452.56 67ZM442.24 67L440.24 66.9654L440.205 69H442.24V67ZM443.36 4.2H458.72V0.199995H443.36V4.2ZM456.754 2.57134L463.874 40.2513L467.805 39.5087L460.685 1.82865L456.754 2.57134ZM467.799 40.2794L475.479 2.59943L471.56 1.80056L463.88 39.4806L467.799 40.2794ZM473.52 4.2H488.32V0.199995H473.52V4.2ZM486.32 2.23456L487.44 67.0346L491.439 66.9654L490.319 2.16543L486.32 2.23456ZM489.44 65H479.28V69H489.44V65ZM481.279 66.9444L480.079 23.8244L476.08 23.9356L477.28 67.0556L481.279 66.9444ZM476.109 23.5364L468.589 66.6564L472.53 67.3436L480.05 24.2236L476.109 23.5364ZM470.56 65H461.52V69H470.56V65ZM463.487 66.6378L455.487 23.1978L451.553 23.9222L459.553 67.3622L463.487 66.6378ZM451.52 23.5158L450.56 66.9558L454.559 67.0442L455.519 23.6042L451.52 23.5158ZM452.56 65H442.24V69H452.56V65ZM444.239 67.0346L445.359 2.23456L441.36 2.16543L440.24 66.9654L444.239 67.0346ZM498.808 2.2V0.199995H496.808V2.2H498.808ZM526.408 3.56L525.817 5.4708L525.838 5.47714L525.858 5.48304L526.408 3.56ZM533.608 8.6L535.228 7.42776L533.608 8.6ZM533.848 28.12L532.267 26.8949L532.267 26.8949L533.848 28.12ZM526.808 32.2L526.429 30.2362L526.553 34.1837L526.808 32.2ZM498.808 67H496.808V69H498.808V67ZM522.088 26.04L520.532 24.7833L520.517 24.8018L520.503 24.8206L522.088 26.04ZM521.688 13.8L520.302 15.2417L520.316 15.2558L520.331 15.2696L521.688 13.8ZM513.128 11.8V9.8H511.128V11.8H513.128ZM513.128 28.12H511.128V30.12H513.128V28.12ZM522.568 54.76L521.027 53.4849L521.022 53.4905L522.568 54.76ZM522.568 39.8L521.022 41.0695L521.036 41.0857L521.049 41.1016L522.568 39.8ZM513.128 37.56V35.56H511.128V37.56H513.128ZM513.128 57H511.128V59H513.128V57ZM498.808 4.2H515.688V0.199995H498.808V4.2ZM515.688 4.2C519.77 4.2 523.131 4.64065 525.817 5.4708L526.998 1.64919C523.818 0.666006 520.032 0.199995 515.688 0.199995V4.2ZM525.858 5.48304C528.416 6.21376 530.438 7.63038 531.987 9.77224L535.228 7.42776C533.151 4.55628 530.373 2.61291 526.957 1.63695L525.858 5.48304ZM531.987 9.77224C533.463 11.8124 534.328 14.8605 534.328 19.16H538.328C538.328 14.3928 537.379 10.401 535.228 7.42776L531.987 9.77224ZM534.328 19.16C534.328 22.739 533.555 25.2333 532.267 26.8949L535.429 29.3451C537.448 26.74 538.328 23.261 538.328 19.16H534.328ZM532.267 26.8949C530.955 28.588 529.067 29.7272 526.429 30.2362L527.187 34.1638C530.629 33.4995 533.434 31.9186 535.429 29.3451L532.267 26.8949ZM526.553 34.1837C529.826 34.6045 532.156 35.9415 533.76 38.1097L536.975 35.7303C534.633 32.5652 531.257 30.7555 527.063 30.2163L526.553 34.1837ZM533.76 38.1097C535.397 40.3223 536.328 43.4813 536.328 47.8H540.328C540.328 42.9454 539.285 38.8511 536.975 35.7303L533.76 38.1097ZM536.328 47.8C536.328 53.8811 534.779 58.077 532.028 60.7713C529.27 63.473 524.963 65 518.728 65V69C525.559 69 531.052 67.327 534.827 63.6287C538.61 59.923 540.328 54.5189 540.328 47.8H536.328ZM518.728 65H498.808V69H518.728V65ZM500.808 67V2.2H496.808V67H500.808ZM515.928 30.12C519.145 30.12 522.021 29.4066 523.673 27.2594L520.503 24.8206C520.021 25.4468 518.79 26.12 515.928 26.12V30.12ZM523.644 27.2967C525.185 25.3882 525.768 22.6781 525.768 19.56H521.768C521.768 22.3086 521.23 23.9185 520.532 24.7833L523.644 27.2967ZM525.768 19.56C525.768 16.6488 524.972 14.1097 523.044 12.3304L520.331 15.2696C521.177 16.0503 521.768 17.3512 521.768 19.56H525.768ZM523.074 12.3583C521.191 10.5476 518.589 9.8 515.608 9.8V13.8C517.96 13.8 519.411 14.3857 520.302 15.2417L523.074 12.3583ZM515.608 9.8H513.128V13.8H515.608V9.8ZM511.128 11.8V28.12H515.128V11.8H511.128ZM513.128 30.12H515.928V26.12H513.128V30.12ZM516.168 59C519.463 59 522.332 58.1974 524.113 56.0295L521.022 53.4905C520.35 54.3092 518.952 55 516.168 55V59ZM524.109 56.0351C525.821 53.9662 526.488 51.0096 526.488 47.56H522.488C522.488 50.6171 521.875 52.4604 521.027 53.4849L524.109 56.0351ZM526.488 47.56C526.488 43.7676 525.852 40.5586 524.086 38.4984L521.049 41.1016C521.843 42.0281 522.488 43.9924 522.488 47.56H526.488ZM524.113 38.5305C522.327 36.3558 519.423 35.56 516.088 35.56V39.56C518.94 39.56 520.355 40.2575 521.022 41.0695L524.113 38.5305ZM516.088 35.56H513.128V39.56H516.088V35.56ZM511.128 37.56V57H515.128V37.56H511.128ZM513.128 59H516.168V55H513.128V59ZM545.839 2.2V0.199995H543.839V2.2H545.839ZM574.959 2.2H576.959V0.199995H574.959V2.2ZM574.959 11.96V13.96H576.959V11.96H574.959ZM560.159 11.96V9.96H558.159V11.96H560.159ZM560.159 28.04H558.159V30.04H560.159V28.04ZM571.439 28.04H573.439V26.04H571.439V28.04ZM571.439 37.96V39.96H573.439V37.96H571.439ZM560.159 37.96V35.96H558.159V37.96H560.159ZM560.159 57.32H558.159V59.32H560.159V57.32ZM575.119 57.32H577.119V55.32H575.119V57.32ZM575.119 67V69H577.119V67H575.119ZM545.839 67H543.839V69H545.839V67ZM545.839 4.2H574.959V0.199995H545.839V4.2ZM572.959 2.2V11.96H576.959V2.2H572.959ZM574.959 9.96H560.159V13.96H574.959V9.96ZM558.159 11.96V28.04H562.159V11.96H558.159ZM560.159 30.04H571.439V26.04H560.159V30.04ZM569.439 28.04V37.96H573.439V28.04H569.439ZM571.439 35.96H560.159V39.96H571.439V35.96ZM558.159 37.96V57.32H562.159V37.96H558.159ZM560.159 59.32H575.119V55.32H560.159V59.32ZM573.119 57.32V67H577.119V57.32H573.119ZM575.119 65H545.839V69H575.119V65ZM547.839 67V2.2H543.839V67H547.839ZM581.62 2.2V0.199995H579.62V2.2H581.62ZM615.54 5.96L614.403 7.60525L614.403 7.60525L615.54 5.96ZM619.3 29.64L617.468 28.8384L617.468 28.8384L619.3 29.64ZM613.06 35.64L612.204 33.8325L610.675 34.5569L611.136 36.1849L613.06 35.64ZM621.94 67V69H624.585L623.865 66.4551L621.94 67ZM607.14 67L605.198 67.4763L605.571 69H607.14V67ZM600.02 37.96L601.963 37.4837L601.589 35.96H600.02V37.96ZM595.94 37.96V35.96H593.94V37.96H595.94ZM595.94 67V69H597.94V67H595.94ZM581.62 67H579.62V69H581.62V67ZM605.94 27.48L604.347 26.2712L604.34 26.28L605.94 27.48ZM606.1 14.04L604.473 15.2025L604.483 15.2165L604.493 15.2304L606.1 14.04ZM595.94 11.8V9.8H593.94V11.8H595.94ZM595.94 29.72H593.94V31.72H595.94V29.72ZM581.62 4.2H599.46V0.199995H581.62V4.2ZM599.46 4.2C606.374 4.2 611.258 5.43149 614.403 7.60525L616.677 4.31474C612.569 1.47517 606.733 0.199995 599.46 0.199995V4.2ZM614.403 7.60525C617.273 9.58893 618.98 13.2606 618.98 19.32H622.98C622.98 12.5794 621.061 7.3444 616.677 4.31474L614.403 7.60525ZM618.98 19.32C618.98 23.4993 618.434 26.631 617.468 28.8384L621.133 30.4416C622.407 27.529 622.98 23.7807 622.98 19.32H618.98ZM617.468 28.8384C616.579 30.8703 614.901 32.555 612.204 33.8325L613.916 37.4475C617.299 35.845 619.782 33.5297 621.133 30.4416L617.468 28.8384ZM611.136 36.1849L620.016 67.5449L623.865 66.4551L614.985 35.0951L611.136 36.1849ZM621.94 65H607.14V69H621.94V65ZM609.083 66.5237L601.963 37.4837L598.078 38.4363L605.198 67.4763L609.083 66.5237ZM600.02 35.96H595.94V39.96H600.02V35.96ZM593.94 37.96V67H597.94V37.96H593.94ZM595.94 65H581.62V69H595.94V65ZM583.62 67V2.2H579.62V67H583.62ZM599.94 31.72C603.1 31.72 605.873 30.9032 607.54 28.68L604.34 26.28C603.768 27.0435 602.541 27.72 599.94 27.72V31.72ZM607.534 28.6888C609.083 26.6468 609.7 23.8454 609.7 20.6H605.7C605.7 23.4346 605.144 25.2199 604.347 26.2712L607.534 28.6888ZM609.7 20.6C609.7 17.488 609.146 14.7917 607.707 12.8495L604.493 15.2304C605.188 16.1683 605.7 17.8453 605.7 20.6H609.7ZM607.728 12.8775C606.143 10.6589 603.547 9.8 600.58 9.8V13.8C602.84 13.8 603.924 14.4344 604.473 15.2025L607.728 12.8775ZM600.58 9.8H595.94V13.8H600.58V9.8ZM593.94 11.8V29.72H597.94V11.8H593.94ZM595.94 31.72H599.94V27.72H595.94V31.72ZM649.578 47.72L648.407 46.0982L647.578 46.6969V47.72H649.578ZM665.098 36.52L666.268 38.1418L668.532 36.5083L666.257 34.8903L665.098 36.52ZM649.578 25.48H647.578V26.5117L648.419 27.1097L649.578 25.48ZM649.578 14.2L650.725 12.5615L647.578 10.3587V14.2H649.578ZM674.378 31.56H676.378V30.5187L675.525 29.9215L674.378 31.56ZM674.378 41.64L675.525 43.2785L676.378 42.6813V41.64H674.378ZM649.578 59H647.578V62.8413L650.725 60.6385L649.578 59ZM650.748 49.3418L666.268 38.1418L663.927 34.8982L648.407 46.0982L650.748 49.3418ZM666.257 34.8903L650.737 23.8503L648.419 27.1097L663.939 38.1497L666.257 34.8903ZM651.578 25.48V14.2H647.578V25.48H651.578ZM648.431 15.8385L673.231 33.1985L675.525 29.9215L650.725 12.5615L648.431 15.8385ZM672.378 31.56V41.64H676.378V31.56H672.378ZM673.231 40.0015L648.431 57.3615L650.725 60.6385L675.525 43.2785L673.231 40.0015ZM651.578 59V47.72H647.578V59H651.578Z" fill="#FF8A00"/>
</svg>
