<svg width="543" height="70" viewBox="0 0 543 70" fill="none" xmlns="http://www.w3.org/2000/svg">
<path d="M2.14406 41.64H0.144063V42.6813L0.997138 43.2785L2.14406 41.64ZM2.14406 31.56L0.997138 29.9215L0.144063 30.5187V31.56H2.14406ZM26.9441 14.2H28.9441V10.3587L25.7971 12.5615L26.9441 14.2ZM26.9441 25.48L28.1129 27.1029L28.9441 26.5043V25.48H26.9441ZM11.5041 36.6L10.3352 34.9771L8.08184 36.6L10.3352 38.2229L11.5041 36.6ZM26.9441 47.72H28.9441V46.6957L28.1129 46.0971L26.9441 47.72ZM26.9441 59L25.7971 60.6385L28.9441 62.8413V59H26.9441ZM4.14406 41.64V31.56H0.144063V41.64H4.14406ZM3.29099 33.1985L28.091 15.8385L25.7971 12.5615L0.997138 29.9215L3.29099 33.1985ZM24.9441 14.2V25.48H28.9441V14.2H24.9441ZM25.7752 23.8571L10.3352 34.9771L12.6729 38.2229L28.1129 27.1029L25.7752 23.8571ZM10.3352 38.2229L25.7752 49.3429L28.1129 46.0971L12.6729 34.9771L10.3352 38.2229ZM24.9441 47.72V59H28.9441V47.72H24.9441ZM28.091 57.3615L3.29099 40.0015L0.997138 43.2785L25.7971 60.6385L28.091 57.3615ZM57.6878 2.2V0.199995H55.7221L55.6881 2.16543L57.6878 2.2ZM73.0478 2.2L75.013 1.82865L74.7053 0.199995H73.0478V2.2ZM80.1678 39.88L78.2026 40.2513L82.1275 40.2794L80.1678 39.88ZM87.8478 2.2V0.199995H86.2143L85.8881 1.80056L87.8478 2.2ZM102.648 2.2L104.648 2.16543L104.614 0.199995H102.648V2.2ZM103.768 67V69H105.803L105.768 66.9654L103.768 67ZM93.6078 67L91.6086 67.0556L91.6627 69H93.6078V67ZM92.4078 23.88L94.407 23.8244L90.4375 23.5364L92.4078 23.88ZM84.8878 67V69H86.5692L86.8581 67.3436L84.8878 67ZM75.8478 67L73.8809 67.3622L74.1825 69H75.8478V67ZM67.8478 23.56L69.8147 23.1978L65.8483 23.5158L67.8478 23.56ZM66.8878 67V69H68.8441L68.8873 67.0442L66.8878 67ZM56.5678 67L54.5681 66.9654L54.5329 69H56.5678V67ZM57.6878 4.2H73.0478V0.199995H57.6878V4.2ZM71.0826 2.57134L78.2026 40.2513L82.133 39.5087L75.013 1.82865L71.0826 2.57134ZM82.1275 40.2794L89.8075 2.59943L85.8881 1.80056L78.2081 39.4806L82.1275 40.2794ZM87.8478 4.2H102.648V0.199995H87.8478V4.2ZM100.648 2.23456L101.768 67.0346L105.768 66.9654L104.648 2.16543L100.648 2.23456ZM103.768 65H93.6078V69H103.768V65ZM95.607 66.9444L94.407 23.8244L90.4086 23.9356L91.6086 67.0556L95.607 66.9444ZM90.4375 23.5364L82.9176 66.6564L86.8581 67.3436L94.3781 24.2236L90.4375 23.5364ZM84.8878 65H75.8478V69H84.8878V65ZM77.8147 66.6378L69.8147 23.1978L65.8809 23.9222L73.8809 67.3622L77.8147 66.6378ZM65.8483 23.5158L64.8883 66.9558L68.8873 67.0442L69.8473 23.6042L65.8483 23.5158ZM66.8878 65H56.5678V69H66.8878V65ZM58.5675 67.0346L59.6875 2.23456L55.6881 2.16543L54.5681 66.9654L58.5675 67.0346ZM122.256 2.2V0.199995H120.598L120.291 1.82878L122.256 2.2ZM138.576 2.2L140.542 1.83347L140.238 0.199995H138.576V2.2ZM150.656 67V69H153.063L152.622 66.6335L150.656 67ZM137.456 67L135.48 67.3119L135.747 69H137.456V67ZM135.296 53.32L137.271 53.0081L137.005 51.32H135.296V53.32ZM125.776 53.32V51.32H124.077L123.802 52.9968L125.776 53.32ZM123.536 67V69H125.235L125.51 67.3232L123.536 67ZM110.016 67L108.051 66.6288L107.603 69H110.016V67ZM133.936 44.76V46.76H136.227L135.918 44.4903L133.936 44.76ZM130.496 19.48L132.478 19.2103L128.514 19.2103L130.496 19.48ZM127.056 44.76L125.074 44.4903L124.765 46.76H127.056V44.76ZM122.256 4.2H138.576V0.199995H122.256V4.2ZM136.61 2.56652L148.69 67.3665L152.622 66.6335L140.542 1.83347L136.61 2.56652ZM150.656 65H137.456V69H150.656V65ZM139.431 66.6881L137.271 53.0081L133.32 53.6319L135.48 67.3119L139.431 66.6881ZM135.296 51.32H125.776V55.32H135.296V51.32ZM123.802 52.9968L121.562 66.6768L125.51 67.3232L127.75 53.6432L123.802 52.9968ZM123.536 65H110.016V69H123.536V65ZM111.981 67.3712L124.221 2.57121L120.291 1.82878L108.051 66.6288L111.981 67.3712ZM135.918 44.4903L132.478 19.2103L128.514 19.7497L131.954 45.0297L135.918 44.4903ZM128.514 19.2103L125.074 44.4903L129.038 45.0297L132.478 19.7497L128.514 19.2103ZM127.056 46.76H133.936V42.76H127.056V46.76ZM159.601 12.84H161.601V10.84H159.601V12.84ZM149.841 12.84H147.841V14.84H149.841V12.84ZM149.841 2.2V0.199995H147.841V2.2H149.841ZM183.681 2.2H185.681V0.199995H183.681V2.2ZM183.681 12.84V14.84H185.681V12.84H183.681ZM174.001 12.84V10.84H172.001V12.84H174.001ZM174.001 67V69H176.001V67H174.001ZM159.601 67H157.601V69H159.601V67ZM159.601 10.84H149.841V14.84H159.601V10.84ZM151.841 12.84V2.2H147.841V12.84H151.841ZM149.841 4.2H183.681V0.199995H149.841V4.2ZM181.681 2.2V12.84H185.681V2.2H181.681ZM183.681 10.84H174.001V14.84H183.681V10.84ZM172.001 12.84V67H176.001V12.84H172.001ZM174.001 65H159.601V69H174.001V65ZM161.601 67V12.84H157.601V67H161.601ZM195.615 2.2V0.199995H193.958L193.65 1.82878L195.615 2.2ZM211.935 2.2L213.901 1.83347L213.597 0.199995H211.935V2.2ZM224.015 67V69H226.423L225.981 66.6335L224.015 67ZM210.815 67L208.84 67.3119L209.106 69H210.815V67ZM208.655 53.32L210.631 53.0081L210.364 51.32H208.655V53.32ZM199.135 53.32V51.32H197.436L197.162 52.9968L199.135 53.32ZM196.895 67V69H198.594L198.869 67.3232L196.895 67ZM183.375 67L181.41 66.6288L180.962 69H183.375V67ZM207.295 44.76V46.76H209.586L209.277 44.4903L207.295 44.76ZM203.855 19.48L205.837 19.2103L201.874 19.2103L203.855 19.48ZM200.415 44.76L198.434 44.4903L198.125 46.76H200.415V44.76ZM195.615 4.2H211.935V0.199995H195.615V4.2ZM209.969 2.56652L222.049 67.3665L225.981 66.6335L213.901 1.83347L209.969 2.56652ZM224.015 65H210.815V69H224.015V65ZM212.791 66.6881L210.631 53.0081L206.68 53.6319L208.84 67.3119L212.791 66.6881ZM208.655 51.32H199.135V55.32H208.655V51.32ZM197.162 52.9968L194.922 66.6768L198.869 67.3232L201.109 53.6432L197.162 52.9968ZM196.895 65H183.375V69H196.895V65ZM185.341 67.3712L197.581 2.57121L193.65 1.82878L181.41 66.6288L185.341 67.3712ZM209.277 44.4903L205.837 19.2103L201.874 19.7497L205.314 45.0297L209.277 44.4903ZM201.874 19.2103L198.434 44.4903L202.397 45.0297L205.837 19.7497L201.874 19.2103ZM200.415 46.76H207.295V42.76H200.415V46.76ZM251.027 2.2V0.199995H249.027V2.2H251.027ZM265.347 2.2H267.347V0.199995H265.347V2.2ZM265.347 28.68H263.347L267.196 29.4401L265.347 28.68ZM276.227 2.2V0.199995H274.886L274.377 1.4399L276.227 2.2ZM290.227 2.2L292.077 2.95844L293.208 0.199995H290.227V2.2ZM278.227 31.48L276.376 30.7216L276.087 31.4275L276.341 32.1467L278.227 31.48ZM290.787 67V69H293.615L292.672 66.3332L290.787 67ZM276.227 67L274.326 67.6213L274.776 69H276.227V67ZM266.867 38.36L268.768 37.7387L267.398 33.5477L265.147 37.3389L266.867 38.36ZM265.347 40.92L263.627 39.8989L263.347 40.371V40.92H265.347ZM265.347 67V69H267.347V67H265.347ZM251.027 67H249.027V69H251.027V67ZM251.027 4.2H265.347V0.199995H251.027V4.2ZM263.347 2.2V28.68H267.347V2.2H263.347ZM267.196 29.4401L278.076 2.96009L274.377 1.4399L263.497 27.9199L267.196 29.4401ZM276.227 4.2H290.227V0.199995H276.227V4.2ZM288.376 1.44155L276.376 30.7216L280.077 32.2384L292.077 2.95844L288.376 1.44155ZM276.341 32.1467L288.901 67.6668L292.672 66.3332L280.112 30.8132L276.341 32.1467ZM290.787 65H276.227V69H290.787V65ZM278.128 66.3787L268.768 37.7387L264.966 38.9813L274.326 67.6213L278.128 66.3787ZM265.147 37.3389L263.627 39.8989L267.066 41.9411L268.586 39.3811L265.147 37.3389ZM263.347 40.92V67H267.347V40.92H263.347ZM265.347 65H251.027V69H265.347V65ZM253.027 67V2.2H249.027V67H253.027ZM303.539 65.64L302.554 67.3805L302.566 67.3876L302.579 67.3945L303.539 65.64ZM297.539 58.68L295.659 59.3609L295.666 59.3806L295.673 59.4002L297.539 58.68ZM295.859 2.2V0.199995H293.859V2.2H295.859ZM310.019 2.2H312.019V0.199995H310.019V2.2ZM310.979 55.32L309.131 56.0847L309.142 56.1116L309.154 56.1381L310.979 55.32ZM319.059 55.32L317.211 54.5553L317.211 54.5553L319.059 55.32ZM320.019 2.2V0.199995H318.019V2.2H320.019ZM334.259 2.2H336.259V0.199995H334.259V2.2ZM332.499 58.68L334.365 59.4002L334.369 59.3893L332.499 58.68ZM326.499 65.64L327.473 67.3868L327.484 67.3805L326.499 65.64ZM315.059 65.96C310.385 65.96 306.919 65.2098 304.499 63.8855L302.579 67.3945C305.812 69.1635 310.026 69.96 315.059 69.96V65.96ZM304.524 63.8995C302.102 62.5283 300.412 60.5696 299.405 57.9598L295.673 59.4002C297.013 62.8704 299.323 65.5517 302.554 67.3805L304.524 63.8995ZM299.42 57.9991C298.405 55.1977 297.859 51.5284 297.859 46.92H293.859C293.859 51.805 294.433 55.9756 295.659 59.3609L299.42 57.9991ZM297.859 46.92V2.2H293.859V46.92H297.859ZM295.859 4.2H310.019V0.199995H295.859V4.2ZM308.019 2.2V49.08H312.019V2.2H308.019ZM308.019 49.08C308.019 51.8245 308.35 54.1982 309.131 56.0847L312.827 54.5553C312.328 53.3484 312.019 51.5622 312.019 49.08H308.019ZM309.154 56.1381C309.659 57.2652 310.45 58.184 311.53 58.7986C312.588 59.4 313.799 59.64 315.059 59.64V55.64C314.292 55.64 313.81 55.4934 313.508 55.3214C313.229 55.1627 312.992 54.9215 312.804 54.5019L309.154 56.1381ZM315.059 59.64C316.317 59.64 317.53 59.4008 318.582 58.7901C319.662 58.1638 320.435 57.2268 320.907 56.0847L317.211 54.5553C317.044 54.9599 316.829 55.1829 316.576 55.3299C316.295 55.4926 315.828 55.64 315.059 55.64V59.64ZM320.907 56.0847C321.688 54.1982 322.019 51.8245 322.019 49.08H318.019C318.019 51.5622 317.71 53.3484 317.211 54.5553L320.907 56.0847ZM322.019 49.08V2.2H318.019V49.08H322.019ZM320.019 4.2H334.259V0.199995H320.019V4.2ZM332.259 2.2V46.92H336.259V2.2H332.259ZM332.259 46.92C332.259 51.5209 331.688 55.1795 330.629 57.9707L334.369 59.3893C335.657 55.9939 336.259 51.8124 336.259 46.92H332.259ZM330.633 57.9598C329.626 60.5696 327.936 62.5283 325.514 63.8995L327.484 67.3805C330.715 65.5517 333.026 62.8704 334.365 59.4002L330.633 57.9598ZM325.525 63.8933C323.166 65.2086 319.737 65.96 315.059 65.96V69.96C320.088 69.96 324.285 69.1647 327.473 67.3867L325.525 63.8933ZM343.37 2.2V0.199995H341.37V2.2H343.37ZM357.69 2.2H359.69V0.199995H357.69V2.2ZM357.69 57.32H355.69V59.32H357.69V57.32ZM372.57 57.32H374.57V55.32H372.57V57.32ZM372.57 67V69H374.57V67H372.57ZM343.37 67H341.37V69H343.37V67ZM343.37 4.2H357.69V0.199995H343.37V4.2ZM355.69 2.2V57.32H359.69V2.2H355.69ZM357.69 59.32H372.57V55.32H357.69V59.32ZM370.57 57.32V67H374.57V57.32H370.57ZM372.57 65H343.37V69H372.57V65ZM345.37 67V2.2H341.37V67H345.37ZM378.919 2.2V0.199995H376.919V2.2H378.919ZM393.239 2.2H395.239V0.199995H393.239V2.2ZM393.239 67V69H395.239V67H393.239ZM378.919 67H376.919V69H378.919V67ZM378.919 4.2H393.239V0.199995H378.919V4.2ZM391.239 2.2V67H395.239V2.2H391.239ZM393.239 65H378.919V69H393.239V65ZM380.919 67V2.2H376.919V67H380.919ZM412.022 2.2V0.199995H410.364L410.056 1.82878L412.022 2.2ZM428.342 2.2L430.308 1.83347L430.003 0.199995H428.342V2.2ZM440.422 67V69H442.829L442.388 66.6335L440.422 67ZM427.222 67L425.246 67.3119L425.513 69H427.222V67ZM425.062 53.32L427.037 53.0081L426.771 51.32H425.062V53.32ZM415.542 53.32V51.32H413.842L413.568 52.9968L415.542 53.32ZM413.302 67V69H415.001L415.275 67.3232L413.302 67ZM399.782 67L397.816 66.6288L397.368 69H399.782V67ZM423.702 44.76V46.76H425.992L425.683 44.4903L423.702 44.76ZM420.262 19.48L422.243 19.2103L418.28 19.2103L420.262 19.48ZM416.822 44.76L414.84 44.4903L414.531 46.76H416.822V44.76ZM412.022 4.2H428.342V0.199995H412.022V4.2ZM426.375 2.56652L438.455 67.3665L442.388 66.6335L430.308 1.83347L426.375 2.56652ZM440.422 65H427.222V69H440.422V65ZM429.197 66.6881L427.037 53.0081L423.086 53.6319L425.246 67.3119L429.197 66.6881ZM425.062 51.32H415.542V55.32H425.062V51.32ZM413.568 52.9968L411.328 66.6768L415.275 67.3232L417.515 53.6432L413.568 52.9968ZM413.302 65H399.782V69H413.302V65ZM401.747 67.3712L413.987 2.57121L410.056 1.82878L397.816 66.6288L401.747 67.3712ZM425.683 44.4903L422.243 19.2103L418.28 19.7497L421.72 45.0297L425.683 44.4903ZM418.28 19.2103L414.84 44.4903L418.803 45.0297L422.243 19.7497L418.28 19.2103ZM416.822 46.76H423.702V42.76H416.822V46.76ZM447.204 2.2V0.199995H445.204V2.2H447.204ZM461.524 2.2H463.524V0.199995H461.524V2.2ZM461.524 28.44H459.524V30.44H461.524V28.44ZM471.524 28.44V30.44H473.524V28.44H471.524ZM471.524 2.2V0.199995H469.524V2.2H471.524ZM485.924 2.2H487.924V0.199995H485.924V2.2ZM485.924 67V69H487.924V67H485.924ZM471.524 67H469.524V69H471.524V67ZM471.524 38.68H473.524V36.68H471.524V38.68ZM461.524 38.68V36.68H459.524V38.68H461.524ZM461.524 67V69H463.524V67H461.524ZM447.204 67H445.204V69H447.204V67ZM447.204 4.2H461.524V0.199995H447.204V4.2ZM459.524 2.2V28.44H463.524V2.2H459.524ZM461.524 30.44H471.524V26.44H461.524V30.44ZM473.524 28.44V2.2H469.524V28.44H473.524ZM471.524 4.2H485.924V0.199995H471.524V4.2ZM483.924 2.2V67H487.924V2.2H483.924ZM485.924 65H471.524V69H485.924V65ZM473.524 67V38.68H469.524V67H473.524ZM471.524 36.68H461.524V40.68H471.524V36.68ZM459.524 38.68V67H463.524V38.68H459.524ZM461.524 65H447.204V69H461.524V65ZM449.204 67V2.2H445.204V67H449.204ZM515.781 47.72L514.611 46.0982L513.781 46.6969V47.72H515.781ZM531.301 36.52L532.471 38.1418L534.735 36.5083L532.46 34.8903L531.301 36.52ZM515.781 25.48H513.781V26.5117L514.622 27.1097L515.781 25.48ZM515.781 14.2L516.928 12.5615L513.781 10.3587V14.2H515.781ZM540.581 31.56H542.581V30.5187L541.728 29.9215L540.581 31.56ZM540.581 41.64L541.728 43.2785L542.581 42.6813V41.64H540.581ZM515.781 59H513.781V62.8413L516.928 60.6385L515.781 59ZM516.951 49.3418L532.471 38.1418L530.131 34.8982L514.611 46.0982L516.951 49.3418ZM532.46 34.8903L516.94 23.8503L514.622 27.1097L530.142 38.1497L532.46 34.8903ZM517.781 25.48V14.2H513.781V25.48H517.781ZM514.634 15.8385L539.434 33.1985L541.728 29.9215L516.928 12.5615L514.634 15.8385ZM538.581 31.56V41.64H542.581V31.56H538.581ZM539.434 40.0015L514.634 57.3615L516.928 60.6385L541.728 43.2785L539.434 40.0015ZM517.781 59V47.72H513.781V59H517.781Z" fill="#FF8A00"/>
</svg>
