<svg width="62" height="60" viewBox="0 0 62 60" fill="none" xmlns="http://www.w3.org/2000/svg">
<path fill-rule="evenodd" clip-rule="evenodd" d="M51.2745 10.0202C45.9454 4.75159 38.8581 1.84879 31.3077 1.8457C15.7494 1.8457 3.08714 14.3492 3.08088 29.717C3.07879 34.6296 4.37839 39.4251 6.8486 43.6521L2.84412 58.0957L17.8076 54.2196C21.9306 56.4405 26.5724 57.6109 31.2962 57.6123H31.308C46.8646 57.6123 59.5282 45.1078 59.5341 29.7393C59.5373 22.2913 56.6039 15.2885 51.2745 10.0202ZM31.3077 52.905H31.2979C27.0883 52.9033 22.9597 51.7861 19.3571 49.6757L18.5008 49.1734L9.62129 51.4737L11.9914 42.9246L11.4334 42.0481C9.08483 38.3594 7.84468 34.0961 7.84677 29.7187C7.85164 16.9454 18.3764 6.55334 31.3171 6.55334C37.5835 6.5554 43.4741 8.96828 47.9035 13.3474C52.3328 17.7264 54.7707 23.5471 54.7686 29.7376C54.763 42.5119 44.239 52.905 31.3077 52.905ZM44.1764 35.5538C43.4713 35.205 40.0036 33.5207 39.357 33.2879C38.711 33.0555 38.2403 32.9398 37.7705 33.6367C37.3002 34.3336 35.9487 35.9026 35.5371 36.3671C35.1255 36.832 34.7145 36.8904 34.0091 36.5415C33.3037 36.1931 31.0313 35.4573 28.3372 33.0846C26.2407 31.2379 24.8253 28.9572 24.4137 28.2603C24.0027 27.5626 24.4102 27.2221 24.7231 26.8389C25.4866 25.9027 26.2511 24.9211 26.4862 24.4566C26.7215 23.9917 26.6037 23.5849 26.4271 23.2364C26.2511 22.888 24.8406 19.4599 24.2531 18.065C23.6801 16.7075 23.0991 16.8908 22.6659 16.8695C22.255 16.8492 21.7846 16.8451 21.3142 16.8451C20.8441 16.8451 20.08 17.0192 19.4333 17.7168C18.787 18.4141 16.9652 20.0988 16.9652 23.5269C16.9652 26.955 19.4924 30.2666 19.8449 30.7315C20.1975 31.1964 24.8184 38.231 31.8932 41.2475C33.5759 41.9657 34.8894 42.3938 35.914 42.7148C37.6037 43.2449 39.1407 43.1701 40.3562 42.9909C41.7114 42.7907 44.5286 41.3058 45.1169 39.6792C45.7044 38.0522 45.7044 36.6579 45.5278 36.3671C45.3519 36.0767 44.8815 35.9026 44.1764 35.5538Z" fill="#ECECEC"/>
</svg>
